%YAML 1.1
%TAG !u! tag:unity3d.com,2011:
--- !u!114 &11400000
MonoBehaviour:
  m_ObjectHideFlags: 0
  m_CorrespondingSourceObject: {fileID: 0}
  m_PrefabInstance: {fileID: 0}
  m_PrefabAsset: {fileID: 0}
  m_GameObject: {fileID: 0}
  m_Enabled: 1
  m_EditorHideFlags: 0
  m_Script: {fileID: 11500000, guid: 17bcdfdf21cbdec45829fafaf3cc48c1, type: 3}
  m_Name: TrampaMina
  m_EditorClassIdentifier: 
  prefabTrampa: {fileID: 3343781115561876601, guid: f5e299e8981a55f49a1d817922d4d3ca,
    type: 3}
