%YAML 1.1
%TAG !u! tag:unity3d.com,2011:
--- !u!114 &-4889500362562277960
MonoBehaviour:
  m_ObjectHideFlags: 11
  m_CorrespondingSourceObject: {fileID: 0}
  m_PrefabInstance: {fileID: 0}
  m_PrefabAsset: {fileID: 0}
  m_GameObject: {fileID: 0}
  m_Enabled: 1
  m_EditorHideFlags: 0
  m_Script: {fileID: 11500000, guid: d0353a89b1f911e48b9e16bdc9f2e058, type: 3}
  m_Name: 
  m_EditorClassIdentifier: 
  version: 4
--- !u!21 &2100000
Material:
  serializedVersion: 8
  m_ObjectHideFlags: 0
  m_CorrespondingSourceObject: {fileID: 0}
  m_PrefabInstance: {fileID: 0}
  m_PrefabAsset: {fileID: 0}
  m_Name: Otoon
  m_Shader: {fileID: 4800000, guid: e88aeddd2ef1f934d805981244872e27, type: 3}
  m_ValidKeywords:
  - _HALFTONESHAPE_DOT
  - _OUTLINE
  - _SPECGLOSSMAP
  m_InvalidKeywords:
  - _SPECULARHIGHLIGHTS_OFF
  m_LightmapFlags: 4
  m_EnableInstancingVariants: 0
  m_DoubleSidedGI: 0
  m_CustomRenderQueue: 2050
  stringTagMap:
    RenderType: Opaque
  disabledShaderPasses: []
  m_SavedProperties:
    serializedVersion: 3
    m_TexEnvs:
    - _BaseMap:
        m_Texture: {fileID: 2800000, guid: a9dcac800fecbfc45bbe53ac11e75d11, type: 3}
        m_Scale: {x: 1, y: 1}
        m_Offset: {x: 0, y: 0}
    - _BumpMap:
        m_Texture: {fileID: 0}
        m_Scale: {x: 1, y: 1}
        m_Offset: {x: 0, y: 0}
    - _DetailAlbedoMap:
        m_Texture: {fileID: 0}
        m_Scale: {x: 1, y: 1}
        m_Offset: {x: 0, y: 0}
    - _DetailMask:
        m_Texture: {fileID: 0}
        m_Scale: {x: 1, y: 1}
        m_Offset: {x: 0, y: 0}
    - _DetailNormalMap:
        m_Texture: {fileID: 0}
        m_Scale: {x: 1, y: 1}
        m_Offset: {x: 0, y: 0}
    - _DiffuseWrapNoise:
        m_Texture: {fileID: 0}
        m_Scale: {x: 1, y: 1}
        m_Offset: {x: 0, y: 0}
    - _EmissionMap:
        m_Texture: {fileID: 0}
        m_Scale: {x: 1, y: 1}
        m_Offset: {x: 0, y: 0}
    - _FaceShadowMap:
        m_Texture: {fileID: 0}
        m_Scale: {x: 1, y: 1}
        m_Offset: {x: 0, y: 0}
    - _HairSpecNoiseMap:
        m_Texture: {fileID: 0}
        m_Scale: {x: 1, y: 1}
        m_Offset: {x: 0, y: 0}
    - _HalfToneNoiseMap:
        m_Texture: {fileID: 0}
        m_Scale: {x: 1, y: 1}
        m_Offset: {x: 0, y: 0}
    - _HalfTonePatternMap:
        m_Texture: {fileID: 0}
        m_Scale: {x: 1, y: 1}
        m_Offset: {x: 0, y: 0}
    - _HatchingNoiseMap:
        m_Texture: {fileID: 2800000, guid: 29d5f9cfb7bc7524a8ab38a4ad0d17e3, type: 3}
        m_Scale: {x: 1, y: 1}
        m_Offset: {x: 0, y: 0}
    - _MainTex:
        m_Texture: {fileID: 2800000, guid: a9dcac800fecbfc45bbe53ac11e75d11, type: 3}
        m_Scale: {x: 1, y: 1}
        m_Offset: {x: 0, y: 0}
    - _MetallicGlossMap:
        m_Texture: {fileID: 0}
        m_Scale: {x: 1, y: 1}
        m_Offset: {x: 0, y: 0}
    - _OcclusionMap:
        m_Texture: {fileID: 0}
        m_Scale: {x: 1, y: 1}
        m_Offset: {x: 0, y: 0}
    - _ParallaxMap:
        m_Texture: {fileID: 0}
        m_Scale: {x: 1, y: 1}
        m_Offset: {x: 0, y: 0}
    - _RampTex:
        m_Texture: {fileID: 0}
        m_Scale: {x: 1, y: 1}
        m_Offset: {x: 0, y: 0}
    - _SpecGlossMap:
        m_Texture: {fileID: 2800000, guid: a9dcac800fecbfc45bbe53ac11e75d11, type: 3}
        m_Scale: {x: 1, y: 1}
        m_Offset: {x: 0, y: 0}
    - _SpecularClipMask:
        m_Texture: {fileID: 0}
        m_Scale: {x: 1, y: 1}
        m_Offset: {x: 0, y: 0}
    - unity_Lightmaps:
        m_Texture: {fileID: 0}
        m_Scale: {x: 1, y: 1}
        m_Offset: {x: 0, y: 0}
    - unity_LightmapsInd:
        m_Texture: {fileID: 0}
        m_Scale: {x: 1, y: 1}
        m_Offset: {x: 0, y: 0}
    - unity_ShadowMasks:
        m_Texture: {fileID: 0}
        m_Scale: {x: 1, y: 1}
        m_Offset: {x: 0, y: 0}
    m_Ints: []
    m_Floats:
    - _AlphaClip: 0
    - _Blend: 0
    - _BrushLowerCut: 0
    - _BrushSize: 0.8
    - _BumpScale: 1
    - _ClearCoatMask: 0
    - _ClearCoatSmoothness: 0
    - _Cull: 2
    - _Cutoff: 0.5
    - _DetailAlbedoMapScale: 1
    - _DetailNormalMapScale: 1
    - _DiffuseStep: 0
    - _DitherTexelSize: 1
    - _DitherThreshold: 1
    - _DstBlend: 0
    - _EnabledHairSpec: 0
    - _EnvironmentReflections: 1
    - _FaceShadowMapEnabled: 0
    - _FaceShadowMapPow: 0.2
    - _FaceShadowSmoothness: 0
    - _FlattenGI: 0
    - _GlossMapScale: 0
    - _Glossiness: 0
    - _GlossinessSource: 0
    - _GlossyReflections: 0
    - _HairSpecExponent: 128
    - _HairSpecNoiseStrength: 1
    - _HairSpecularSize: 0.8
    - _HairSpecularSmoothness: 0.1
    - _HalfToneDiffuseStep: 0
    - _HalfToneEnabled: 0
    - _HalfToneIncludeReceivedShadow: 0
    - _HalfToneShape: 0
    - _HalfToneUvMode: 1
    - _HalftoneFadeDistance: 10
    - _HalftoneFadeToColor: 0
    - _HalftoneNoiseClip: 0.8
    - _HalftoneTilling: 8
    - _HatchingDensity: 0
    - _HatchingDiffuseOffset: 0.39
    - _HatchingDrawStrength: 9.79
    - _HatchingEnabled: 0
    - _HatchingRotation: 0
    - _HatchingSmoothness: 0.01
    - _LightContribution: 1
    - _LightFalloffSize: 1
    - _Metallic: 0
    - _NoiseScale: 1
    - _NoiseStrength: 0.1
    - _OcclusionStrength: 1
    - _OutlineEnabled: 1
    - _OutlineMode: 0
    - _OutlineWidth: 8.5
    - _OverrideShadowColor: 0
    - _Parallax: 0.005
    - _QueueOffset: 0
    - _ReceiveShadows: 1
    - _RimEnabled: 0
    - _RimLightAlign: 0
    - _RimLightSmoothness: 0.361
    - _RimPower: 0.424
    - _Shininess: 0
    - _SizeFalloff: 1
    - _Smoothness: 103.8
    - _SmoothnessSource: 0
    - _SmoothnessTextureChannel: 0
    - _SpecClipMaskScale: 0
    - _SpecShadowStrength: 1
    - _SpecSource: 0
    - _SpecularClipStrength: 0
    - _SpecularFalloff: 0
    - _SpecularHighlights: 0
    - _SpecularSize: 0.185
    - _SpherizeNormalEnabled: 0
    - _SrcBlend: 1
    - _StencilComp: 0
    - _StencilRef: 0
    - _StepViaRampTexture: 0
    - _Surface: 0
    - _UseRampColor: 0
    - _WorkflowMode: 1
    - _ZWrite: 1
    - _brushScale: 19.82
    m_Colors:
    - _BaseColor: {r: 1, g: 1, b: 1, a: 0.5}
    - _Color: {r: 1, g: 1, b: 1, a: 1}
    - _EmissionColor: {r: 0, g: 0, b: 0, a: 1}
    - _FaceFrontDirection: {r: 0, g: 0, b: 1, a: 0}
    - _FaceRightDirection: {r: 1, g: 0, b: 0, a: 0}
    - _HairSpecColor: {r: 0, g: 0, b: 0, a: 1}
    - _HalfToneColor: {r: 0.6320754, g: 0.42709225, b: 0, a: 1}
    - _HatchingColor: {r: 1, g: 0.29011536, b: 0, a: 1}
    - _OutlineColor: {r: 0, g: 0, b: 0, a: 1}
    - _OutlineDistancFade: {r: -25, g: 50, b: 0, a: 0}
    - _RimColor: {r: 0.90548396, g: 1, b: 0, a: 1}
    - _ShadowColor: {r: 0, g: 0, b: 0, a: 1}
    - _SpecColor: {r: 1, g: 1, b: 1, a: 103.8}
    - _SpherizeNormalOrigin: {r: 0, g: 0, b: 0, a: 0}
  m_BuildTextureStacks: []
