KEY,VALUE
title,SIGURD
playBtn,Jugar
optionsBtn,Opcions
creditsBtn,Credits
exitBtn,Sortir
volTxt,Volum
languageTxt,Idioma
fullscreenTxt,Pantalla completa
saveBtn,Guardar
returnBtn,Tornar
txttutmove,WASD o stick dret per moure
txttutjump,Barra o A per saltar
txttutmines,Vigila amb les mines
txttutcheckpoint,Toca un punt de control per desar el progres
txttutatk,Clic dret o X per atacar
txttutlad,barra o A junt a una escala per pujar
txttutdiana,Fes ús de la bola de foc per destruir les dianes i accedir a zones noves.