KEY,VALUE
title,SIGURD
playBtn,Play
optionsBtn,Options
creditsBtn,Credits
exitBtn,Exit
volTxt,Volume
languageTxt,Language
fullscreenTxt,Full Screen
saveBtn,Save
returnBtn,Return
txttutmove,WASD or left stick to move
txttutjump,Spacebar or A to jump
txttutmines,Be careful with mines
txttutcheckpoint,Touch a checkpoint for save a respawn position
txttutatk,Left click or X to attack
txttutlad,Spacebar or A next to a ladder to climb
txttutdiana,Use the fireball to destroy the reveilles and access new areas