%YAML 1.1
%TAG !u! tag:unity3d.com,2011:
--- !u!78 &1
TagManager:
  serializedVersion: 2
  tags:
  - CinemachineTarget
  - Amigos
  - Escalera
  layers:
  - Default
  - TransparentFX
  - Ignore Raycast
  - Walls
  - Water
  - UI
  - objects
  - sigurd
  - Enemies
  - Ground
  - weapons
  - Proyectil_Inimigo
  - Proyectil_Sigurd
  - Moneda
  - Rocks
  - invisibleWalls
  - TriggersSigurd
  - 
  - 
  - 
  - 
  - 
  - 
  - 
  - 
  - 
  - 
  - 
  - 
  - 
  - 
  - 
  m_SortingLayers:
  - name: Default
    uniqueID: 0
    locked: 0
