%YAML 1.1
%TAG !u! tag:unity3d.com,2011:
--- !u!29 &1
OcclusionCullingSettings:
  m_ObjectHideFlags: 0
  serializedVersion: 2
  m_OcclusionBakeSettings:
    smallestOccluder: 5
    smallestHole: 0.25
    backfaceThreshold: 100
  m_SceneGUID: 00000000000000000000000000000000
  m_OcclusionCullingData: {fileID: 0}
--- !u!104 &2
RenderSettings:
  m_ObjectHideFlags: 0
  serializedVersion: 9
  m_Fog: 1
  m_FogColor: {r: 0.4862745, g: 0.69411767, b: 0.8117647, a: 1}
  m_FogMode: 3
  m_FogDensity: 0.025
  m_LinearFogStart: 0
  m_LinearFogEnd: 300
  m_AmbientSkyColor: {r: 0.9386859, g: 0.90466136, b: 0.84687346, a: 1}
  m_AmbientEquatorColor: {r: 0.114, g: 0.125, b: 0.133, a: 1}
  m_AmbientGroundColor: {r: 0.047, g: 0.043, b: 0.035, a: 1}
  m_AmbientIntensity: 1
  m_AmbientMode: 0
  m_SubtractiveShadowColor: {r: 0.42, g: 0.478, b: 0.627, a: 1}
  m_SkyboxMaterial: {fileID: 2100000, guid: aeab33f69c199e54794f516d31450ec4, type: 2}
  m_HaloStrength: 0.5
  m_FlareStrength: 1
  m_FlareFadeSpeed: 3
  m_HaloTexture: {fileID: 0}
  m_SpotCookie: {fileID: 10001, guid: 0000000000000000e000000000000000, type: 0}
  m_DefaultReflectionMode: 1
  m_DefaultReflectionResolution: 128
  m_ReflectionBounces: 5
  m_ReflectionIntensity: 1
  m_CustomReflection: {fileID: 8900000, guid: 619e305f5165a9946b7f72464e44ca4a, type: 3}
  m_Sun: {fileID: 2114283754330233425}
  m_IndirectSpecularColor: {r: 0.025252314, g: 0.054982007, b: 0.11085914, a: 1}
  m_UseRadianceAmbientProbe: 0
--- !u!157 &3
LightmapSettings:
  m_ObjectHideFlags: 0
  serializedVersion: 12
  m_GIWorkflowMode: 1
  m_GISettings:
    serializedVersion: 2
    m_BounceScale: 1
    m_IndirectOutputScale: 1
    m_AlbedoBoost: 1
    m_EnvironmentLightingMode: 0
    m_EnableBakedLightmaps: 1
    m_EnableRealtimeLightmaps: 0
  m_LightmapEditorSettings:
    serializedVersion: 12
    m_Resolution: 2
    m_BakeResolution: 80
    m_AtlasSize: 1024
    m_AO: 1
    m_AOMaxDistance: 1
    m_CompAOExponent: 0.4
    m_CompAOExponentDirect: 0.4
    m_ExtractAmbientOcclusion: 0
    m_Padding: 2
    m_LightmapParameters: {fileID: 15204, guid: 0000000000000000f000000000000000,
      type: 0}
    m_LightmapsBakeMode: 1
    m_TextureCompression: 1
    m_FinalGather: 0
    m_FinalGatherFiltering: 1
    m_FinalGatherRayCount: 256
    m_ReflectionCompression: 2
    m_MixedBakeMode: 2
    m_BakeBackend: 1
    m_PVRSampling: 1
    m_PVRDirectSampleCount: 400
    m_PVRSampleCount: 400
    m_PVRBounces: 4
    m_PVREnvironmentSampleCount: 500
    m_PVREnvironmentReferencePointCount: 2048
    m_PVRFilteringMode: 1
    m_PVRDenoiserTypeDirect: 1
    m_PVRDenoiserTypeIndirect: 1
    m_PVRDenoiserTypeAO: 1
    m_PVRFilterTypeDirect: 0
    m_PVRFilterTypeIndirect: 0
    m_PVRFilterTypeAO: 0
    m_PVREnvironmentMIS: 1
    m_PVRCulling: 0
    m_PVRFilteringGaussRadiusDirect: 1
    m_PVRFilteringGaussRadiusIndirect: 5
    m_PVRFilteringGaussRadiusAO: 2
    m_PVRFilteringAtrousPositionSigmaDirect: 0.5
    m_PVRFilteringAtrousPositionSigmaIndirect: 2
    m_PVRFilteringAtrousPositionSigmaAO: 1
    m_ExportTrainingData: 0
    m_TrainingDataDestination: TrainingData
    m_LightProbeSampleCountMultiplier: 4
  m_LightingDataAsset: {fileID: 112000000, guid: 51e8050f26ab504469d218c927558c5e,
    type: 2}
  m_LightingSettings: {fileID: 4890085278179872738, guid: 3b3f7400d3526e9429c39d03afb714b3,
    type: 2}
--- !u!196 &4
NavMeshSettings:
  serializedVersion: 2
  m_ObjectHideFlags: 0
  m_BuildSettings:
    serializedVersion: 2
    agentTypeID: 0
    agentRadius: 0.5
    agentHeight: 2
    agentSlope: 45
    agentClimb: 0.4
    ledgeDropHeight: 0
    maxJumpAcrossDistance: 0
    minRegionArea: 2
    manualCellSize: 0
    cellSize: 0.16666667
    manualTileSize: 0
    tileSize: 256
    accuratePlacement: 0
    maxJobWorkers: 0
    preserveTilesOutsideBounds: 0
    debug:
      m_Flags: 0
  m_NavMeshData: {fileID: 23800000, guid: 4f76d6923150df84ca7f7130ef082303, type: 2}
--- !u!1001 &85018720
PrefabInstance:
  m_ObjectHideFlags: 0
  serializedVersion: 2
  m_Modification:
    m_TransformParent: {fileID: 1943861430}
    m_Modifications:
    - target: {fileID: 2765075023489016845, guid: 687dbafc2b84b2846b9a4a7a7dae2a7e,
        type: 3}
      propertyPath: m_Name
      value: Box_350x250x300_Prefab (1)
      objectReference: {fileID: 0}
    - target: {fileID: 3248315488105561783, guid: 687dbafc2b84b2846b9a4a7a7dae2a7e,
        type: 3}
      propertyPath: m_RootOrder
      value: 29
      objectReference: {fileID: 0}
    - target: {fileID: 3248315488105561783, guid: 687dbafc2b84b2846b9a4a7a7dae2a7e,
        type: 3}
      propertyPath: m_LocalScale.x
      value: 0.2
      objectReference: {fileID: 0}
    - target: {fileID: 3248315488105561783, guid: 687dbafc2b84b2846b9a4a7a7dae2a7e,
        type: 3}
      propertyPath: m_LocalScale.y
      value: 1
      objectReference: {fileID: 0}
    - target: {fileID: 3248315488105561783, guid: 687dbafc2b84b2846b9a4a7a7dae2a7e,
        type: 3}
      propertyPath: m_LocalPosition.x
      value: -1.71
      objectReference: {fileID: 0}
    - target: {fileID: 3248315488105561783, guid: 687dbafc2b84b2846b9a4a7a7dae2a7e,
        type: 3}
      propertyPath: m_LocalPosition.y
      value: 1.1
      objectReference: {fileID: 0}
    - target: {fileID: 3248315488105561783, guid: 687dbafc2b84b2846b9a4a7a7dae2a7e,
        type: 3}
      propertyPath: m_LocalPosition.z
      value: 4.14
      objectReference: {fileID: 0}
    - target: {fileID: 3248315488105561783, guid: 687dbafc2b84b2846b9a4a7a7dae2a7e,
        type: 3}
      propertyPath: m_LocalRotation.w
      value: 0.6161592
      objectReference: {fileID: 0}
    - target: {fileID: 3248315488105561783, guid: 687dbafc2b84b2846b9a4a7a7dae2a7e,
        type: 3}
      propertyPath: m_LocalRotation.x
      value: -0.6161592
      objectReference: {fileID: 0}
    - target: {fileID: 3248315488105561783, guid: 687dbafc2b84b2846b9a4a7a7dae2a7e,
        type: 3}
      propertyPath: m_LocalRotation.y
      value: 0.34691194
      objectReference: {fileID: 0}
    - target: {fileID: 3248315488105561783, guid: 687dbafc2b84b2846b9a4a7a7dae2a7e,
        type: 3}
      propertyPath: m_LocalRotation.z
      value: 0.34691194
      objectReference: {fileID: 0}
    - target: {fileID: 3248315488105561783, guid: 687dbafc2b84b2846b9a4a7a7dae2a7e,
        type: 3}
      propertyPath: m_LocalEulerAnglesHint.x
      value: 0
      objectReference: {fileID: 0}
    - target: {fileID: 3248315488105561783, guid: 687dbafc2b84b2846b9a4a7a7dae2a7e,
        type: 3}
      propertyPath: m_LocalEulerAnglesHint.y
      value: 0
      objectReference: {fileID: 0}
    - target: {fileID: 3248315488105561783, guid: 687dbafc2b84b2846b9a4a7a7dae2a7e,
        type: 3}
      propertyPath: m_LocalEulerAnglesHint.z
      value: 0
      objectReference: {fileID: 0}
    m_RemovedComponents: []
  m_SourcePrefab: {fileID: 100100000, guid: 687dbafc2b84b2846b9a4a7a7dae2a7e, type: 3}
--- !u!1001 &121254941
PrefabInstance:
  m_ObjectHideFlags: 0
  serializedVersion: 2
  m_Modification:
    m_TransformParent: {fileID: 0}
    m_Modifications:
    - target: {fileID: 7717662064693330893, guid: 61d5c5f6fc3b9ad4ab69064e1e844dd9,
        type: 3}
      propertyPath: cabecaInimigo
      value: 
      objectReference: {fileID: 1597284311}
    - target: {fileID: 7717662064693330894, guid: 61d5c5f6fc3b9ad4ab69064e1e844dd9,
        type: 3}
      propertyPath: _cabeca
      value: 
      objectReference: {fileID: 1079598053}
    - target: {fileID: 7717662064693330894, guid: 61d5c5f6fc3b9ad4ab69064e1e844dd9,
        type: 3}
      propertyPath: bulletPrefab
      value: 
      objectReference: {fileID: 7464147092682544556, guid: a27a98f02796d914c932e2f59fd80f73,
        type: 3}
    - target: {fileID: 7717662065391543140, guid: 61d5c5f6fc3b9ad4ab69064e1e844dd9,
        type: 3}
      propertyPath: m_Name
      value: EnemigoPreuba1
      objectReference: {fileID: 0}
    - target: {fileID: 7717662065391543147, guid: 61d5c5f6fc3b9ad4ab69064e1e844dd9,
        type: 3}
      propertyPath: m_RootOrder
      value: 2
      objectReference: {fileID: 0}
    - target: {fileID: 7717662065391543147, guid: 61d5c5f6fc3b9ad4ab69064e1e844dd9,
        type: 3}
      propertyPath: m_LocalPosition.x
      value: 18.016846
      objectReference: {fileID: 0}
    - target: {fileID: 7717662065391543147, guid: 61d5c5f6fc3b9ad4ab69064e1e844dd9,
        type: 3}
      propertyPath: m_LocalPosition.y
      value: -4.5
      objectReference: {fileID: 0}
    - target: {fileID: 7717662065391543147, guid: 61d5c5f6fc3b9ad4ab69064e1e844dd9,
        type: 3}
      propertyPath: m_LocalPosition.z
      value: 9.044382
      objectReference: {fileID: 0}
    - target: {fileID: 7717662065391543147, guid: 61d5c5f6fc3b9ad4ab69064e1e844dd9,
        type: 3}
      propertyPath: m_LocalRotation.w
      value: -0.19489172
      objectReference: {fileID: 0}
    - target: {fileID: 7717662065391543147, guid: 61d5c5f6fc3b9ad4ab69064e1e844dd9,
        type: 3}
      propertyPath: m_LocalRotation.x
      value: -0
      objectReference: {fileID: 0}
    - target: {fileID: 7717662065391543147, guid: 61d5c5f6fc3b9ad4ab69064e1e844dd9,
        type: 3}
      propertyPath: m_LocalRotation.y
      value: 0.98082477
      objectReference: {fileID: 0}
    - target: {fileID: 7717662065391543147, guid: 61d5c5f6fc3b9ad4ab69064e1e844dd9,
        type: 3}
      propertyPath: m_LocalRotation.z
      value: -0
      objectReference: {fileID: 0}
    - target: {fileID: 7717662065391543147, guid: 61d5c5f6fc3b9ad4ab69064e1e844dd9,
        type: 3}
      propertyPath: m_LocalEulerAnglesHint.x
      value: 0
      objectReference: {fileID: 0}
    - target: {fileID: 7717662065391543147, guid: 61d5c5f6fc3b9ad4ab69064e1e844dd9,
        type: 3}
      propertyPath: m_LocalEulerAnglesHint.y
      value: 202.477
      objectReference: {fileID: 0}
    - target: {fileID: 7717662065391543147, guid: 61d5c5f6fc3b9ad4ab69064e1e844dd9,
        type: 3}
      propertyPath: m_LocalEulerAnglesHint.z
      value: 0
      objectReference: {fileID: 0}
    m_RemovedComponents: []
  m_SourcePrefab: {fileID: 100100000, guid: 61d5c5f6fc3b9ad4ab69064e1e844dd9, type: 3}
--- !u!1 &542508511
GameObject:
  m_ObjectHideFlags: 0
  m_CorrespondingSourceObject: {fileID: 0}
  m_PrefabInstance: {fileID: 0}
  m_PrefabAsset: {fileID: 0}
  serializedVersion: 6
  m_Component:
  - component: {fileID: 542508512}
  - component: {fileID: 542508513}
  m_Layer: 0
  m_Name: Reflection Probe (1)
  m_TagString: Untagged
  m_Icon: {fileID: 0}
  m_NavMeshLayer: 0
  m_StaticEditorFlags: 0
  m_IsActive: 1
--- !u!4 &542508512
Transform:
  m_ObjectHideFlags: 0
  m_CorrespondingSourceObject: {fileID: 0}
  m_PrefabInstance: {fileID: 0}
  m_PrefabAsset: {fileID: 0}
  m_GameObject: {fileID: 542508511}
  m_LocalRotation: {x: -0, y: -0, z: -0, w: 1}
  m_LocalPosition: {x: 6.486, y: 1.566, z: 11.068}
  m_LocalScale: {x: 1, y: 1, z: 1}
  m_ConstrainProportionsScale: 0
  m_Children: []
  m_Father: {fileID: 2114283753834967213}
  m_RootOrder: 3
  m_LocalEulerAnglesHint: {x: 0, y: 0, z: 0}
--- !u!215 &542508513
ReflectionProbe:
  m_ObjectHideFlags: 0
  m_CorrespondingSourceObject: {fileID: 0}
  m_PrefabInstance: {fileID: 0}
  m_PrefabAsset: {fileID: 0}
  m_GameObject: {fileID: 542508511}
  m_Enabled: 1
  serializedVersion: 2
  m_Type: 0
  m_Mode: 0
  m_RefreshMode: 0
  m_TimeSlicingMode: 0
  m_Resolution: 128
  m_UpdateFrequency: 0
  m_BoxSize: {x: 6.791793, y: 3.0818176, z: 6.757762}
  m_BoxOffset: {x: 0.3952031, y: -0.096860886, z: -0.21973467}
  m_NearClip: 0.3
  m_FarClip: 1000
  m_ShadowDistance: 100
  m_ClearFlags: 1
  m_BackGroundColor: {r: 0.19215687, g: 0.3019608, b: 0.4745098, a: 0}
  m_CullingMask:
    serializedVersion: 2
    m_Bits: 4294967295
  m_IntensityMultiplier: 1
  m_BlendDistance: 1
  m_HDR: 1
  m_BoxProjection: 0
  m_RenderDynamicObjects: 0
  m_UseOcclusionCulling: 1
  m_Importance: 1
  m_CustomBakedTexture: {fileID: 0}
--- !u!1 &586367540
GameObject:
  m_ObjectHideFlags: 0
  m_CorrespondingSourceObject: {fileID: 0}
  m_PrefabInstance: {fileID: 0}
  m_PrefabAsset: {fileID: 0}
  serializedVersion: 6
  m_Component:
  - component: {fileID: 586367541}
  - component: {fileID: 586367543}
  - component: {fileID: 586367542}
  m_Layer: 5
  m_Name: Bar2
  m_TagString: Untagged
  m_Icon: {fileID: 0}
  m_NavMeshLayer: 0
  m_StaticEditorFlags: 0
  m_IsActive: 1
--- !u!224 &586367541
RectTransform:
  m_ObjectHideFlags: 0
  m_CorrespondingSourceObject: {fileID: 0}
  m_PrefabInstance: {fileID: 0}
  m_PrefabAsset: {fileID: 0}
  m_GameObject: {fileID: 586367540}
  m_LocalRotation: {x: 0, y: 0, z: 0, w: 1}
  m_LocalPosition: {x: 0, y: 0, z: 0}
  m_LocalScale: {x: 1, y: 1, z: 1}
  m_ConstrainProportionsScale: 0
  m_Children: []
  m_Father: {fileID: 878701952}
  m_RootOrder: 0
  m_LocalEulerAnglesHint: {x: 0, y: 0, z: 0}
  m_AnchorMin: {x: 0.5, y: 0.5}
  m_AnchorMax: {x: 0.5, y: 0.5}
  m_AnchoredPosition: {x: 0, y: 0}
  m_SizeDelta: {x: 100, y: 100}
  m_Pivot: {x: 0.5, y: 0.5}
--- !u!114 &586367542
MonoBehaviour:
  m_ObjectHideFlags: 0
  m_CorrespondingSourceObject: {fileID: 0}
  m_PrefabInstance: {fileID: 0}
  m_PrefabAsset: {fileID: 0}
  m_GameObject: {fileID: 586367540}
  m_Enabled: 1
  m_EditorHideFlags: 0
  m_Script: {fileID: 11500000, guid: fe87c0e1cc204ed48ad3b37840f39efc, type: 3}
  m_Name: 
  m_EditorClassIdentifier: 
  m_Material: {fileID: 0}
  m_Color: {r: 1, g: 1, b: 1, a: 1}
  m_RaycastTarget: 1
  m_RaycastPadding: {x: 0, y: 0, z: 0, w: 0}
  m_Maskable: 1
  m_OnCullStateChanged:
    m_PersistentCalls:
      m_Calls: []
  m_Sprite: {fileID: 21300000, guid: 3b320d40d49a0d04f967a30f65fcfcc1, type: 3}
  m_Type: 3
  m_PreserveAspect: 0
  m_FillCenter: 1
  m_FillMethod: 4
  m_FillAmount: 0
  m_FillClockwise: 1
  m_FillOrigin: 2
  m_UseSpriteMesh: 0
  m_PixelsPerUnitMultiplier: 1
--- !u!222 &586367543
CanvasRenderer:
  m_ObjectHideFlags: 0
  m_CorrespondingSourceObject: {fileID: 0}
  m_PrefabInstance: {fileID: 0}
  m_PrefabAsset: {fileID: 0}
  m_GameObject: {fileID: 586367540}
  m_CullTransparentMesh: 1
--- !u!1 &742755639
GameObject:
  m_ObjectHideFlags: 0
  m_CorrespondingSourceObject: {fileID: 0}
  m_PrefabInstance: {fileID: 0}
  m_PrefabAsset: {fileID: 0}
  serializedVersion: 6
  m_Component:
  - component: {fileID: 742755640}
  - component: {fileID: 742755642}
  - component: {fileID: 742755641}
  m_Layer: 5
  m_Name: Bar1
  m_TagString: Untagged
  m_Icon: {fileID: 0}
  m_NavMeshLayer: 0
  m_StaticEditorFlags: 0
  m_IsActive: 1
--- !u!224 &742755640
RectTransform:
  m_ObjectHideFlags: 0
  m_CorrespondingSourceObject: {fileID: 0}
  m_PrefabInstance: {fileID: 0}
  m_PrefabAsset: {fileID: 0}
  m_GameObject: {fileID: 742755639}
  m_LocalRotation: {x: 0, y: 0, z: 0, w: 1}
  m_LocalPosition: {x: 0, y: 0, z: 0}
  m_LocalScale: {x: 1, y: 1, z: 1}
  m_ConstrainProportionsScale: 0
  m_Children: []
  m_Father: {fileID: 878701952}
  m_RootOrder: 1
  m_LocalEulerAnglesHint: {x: 0, y: 0, z: 0}
  m_AnchorMin: {x: 0.5, y: 0.5}
  m_AnchorMax: {x: 0.5, y: 0.5}
  m_AnchoredPosition: {x: 0, y: 0}
  m_SizeDelta: {x: 100, y: 100}
  m_Pivot: {x: 0.5, y: 0.5}
--- !u!114 &742755641
MonoBehaviour:
  m_ObjectHideFlags: 0
  m_CorrespondingSourceObject: {fileID: 0}
  m_PrefabInstance: {fileID: 0}
  m_PrefabAsset: {fileID: 0}
  m_GameObject: {fileID: 742755639}
  m_Enabled: 1
  m_EditorHideFlags: 0
  m_Script: {fileID: 11500000, guid: fe87c0e1cc204ed48ad3b37840f39efc, type: 3}
  m_Name: 
  m_EditorClassIdentifier: 
  m_Material: {fileID: 0}
  m_Color: {r: 1, g: 1, b: 1, a: 1}
  m_RaycastTarget: 1
  m_RaycastPadding: {x: 0, y: 0, z: 0, w: 0}
  m_Maskable: 1
  m_OnCullStateChanged:
    m_PersistentCalls:
      m_Calls: []
  m_Sprite: {fileID: 21300000, guid: 3b320d40d49a0d04f967a30f65fcfcc1, type: 3}
  m_Type: 3
  m_PreserveAspect: 0
  m_FillCenter: 1
  m_FillMethod: 4
  m_FillAmount: 1
  m_FillClockwise: 1
  m_FillOrigin: 2
  m_UseSpriteMesh: 0
  m_PixelsPerUnitMultiplier: 1
--- !u!222 &742755642
CanvasRenderer:
  m_ObjectHideFlags: 0
  m_CorrespondingSourceObject: {fileID: 0}
  m_PrefabInstance: {fileID: 0}
  m_PrefabAsset: {fileID: 0}
  m_GameObject: {fileID: 742755639}
  m_CullTransparentMesh: 1
--- !u!1001 &746329221
PrefabInstance:
  m_ObjectHideFlags: 0
  serializedVersion: 2
  m_Modification:
    m_TransformParent: {fileID: 0}
    m_Modifications:
    - target: {fileID: 1992104595683069851, guid: f0271df749728104eac22c3d897fd8ce,
        type: 3}
      propertyPath: m_Name
      value: UI_EventSystem
      objectReference: {fileID: 0}
    - target: {fileID: 8063073397250431797, guid: f0271df749728104eac22c3d897fd8ce,
        type: 3}
      propertyPath: m_RootOrder
      value: 6
      objectReference: {fileID: 0}
    - target: {fileID: 8063073397250431797, guid: f0271df749728104eac22c3d897fd8ce,
        type: 3}
      propertyPath: m_LocalScale.x
      value: 1
      objectReference: {fileID: 0}
    - target: {fileID: 8063073397250431797, guid: f0271df749728104eac22c3d897fd8ce,
        type: 3}
      propertyPath: m_LocalScale.y
      value: 1
      objectReference: {fileID: 0}
    - target: {fileID: 8063073397250431797, guid: f0271df749728104eac22c3d897fd8ce,
        type: 3}
      propertyPath: m_LocalScale.z
      value: 1
      objectReference: {fileID: 0}
    - target: {fileID: 8063073397250431797, guid: f0271df749728104eac22c3d897fd8ce,
        type: 3}
      propertyPath: m_LocalPosition.x
      value: 0
      objectReference: {fileID: 0}
    - target: {fileID: 8063073397250431797, guid: f0271df749728104eac22c3d897fd8ce,
        type: 3}
      propertyPath: m_LocalPosition.y
      value: 0
      objectReference: {fileID: 0}
    - target: {fileID: 8063073397250431797, guid: f0271df749728104eac22c3d897fd8ce,
        type: 3}
      propertyPath: m_LocalPosition.z
      value: 0
      objectReference: {fileID: 0}
    - target: {fileID: 8063073397250431797, guid: f0271df749728104eac22c3d897fd8ce,
        type: 3}
      propertyPath: m_LocalRotation.w
      value: 1
      objectReference: {fileID: 0}
    - target: {fileID: 8063073397250431797, guid: f0271df749728104eac22c3d897fd8ce,
        type: 3}
      propertyPath: m_LocalRotation.x
      value: -0
      objectReference: {fileID: 0}
    - target: {fileID: 8063073397250431797, guid: f0271df749728104eac22c3d897fd8ce,
        type: 3}
      propertyPath: m_LocalRotation.y
      value: -0
      objectReference: {fileID: 0}
    - target: {fileID: 8063073397250431797, guid: f0271df749728104eac22c3d897fd8ce,
        type: 3}
      propertyPath: m_LocalRotation.z
      value: -0
      objectReference: {fileID: 0}
    - target: {fileID: 8063073397250431797, guid: f0271df749728104eac22c3d897fd8ce,
        type: 3}
      propertyPath: m_LocalEulerAnglesHint.x
      value: 0
      objectReference: {fileID: 0}
    - target: {fileID: 8063073397250431797, guid: f0271df749728104eac22c3d897fd8ce,
        type: 3}
      propertyPath: m_LocalEulerAnglesHint.y
      value: 0
      objectReference: {fileID: 0}
    - target: {fileID: 8063073397250431797, guid: f0271df749728104eac22c3d897fd8ce,
        type: 3}
      propertyPath: m_LocalEulerAnglesHint.z
      value: 0
      objectReference: {fileID: 0}
    m_RemovedComponents: []
  m_SourcePrefab: {fileID: 100100000, guid: f0271df749728104eac22c3d897fd8ce, type: 3}
--- !u!1 &874605735
GameObject:
  m_ObjectHideFlags: 0
  m_CorrespondingSourceObject: {fileID: 0}
  m_PrefabInstance: {fileID: 0}
  m_PrefabAsset: {fileID: 0}
  serializedVersion: 6
  m_Component:
  - component: {fileID: 874605736}
  - component: {fileID: 874605737}
  m_Layer: 0
  m_Name: Light Probe Group (1)
  m_TagString: Untagged
  m_Icon: {fileID: 0}
  m_NavMeshLayer: 0
  m_StaticEditorFlags: 0
  m_IsActive: 1
--- !u!4 &874605736
Transform:
  m_ObjectHideFlags: 0
  m_CorrespondingSourceObject: {fileID: 0}
  m_PrefabInstance: {fileID: 0}
  m_PrefabAsset: {fileID: 0}
  m_GameObject: {fileID: 874605735}
  m_LocalRotation: {x: -0, y: -0, z: -0, w: 1}
  m_LocalPosition: {x: 0.19, y: 1.79, z: 21.97}
  m_LocalScale: {x: 1, y: 1, z: 1}
  m_ConstrainProportionsScale: 0
  m_Children: []
  m_Father: {fileID: 2114283753834967213}
  m_RootOrder: 4
  m_LocalEulerAnglesHint: {x: 0, y: 0, z: 0}
--- !u!220 &874605737
LightProbeGroup:
  m_ObjectHideFlags: 0
  m_CorrespondingSourceObject: {fileID: 0}
  m_PrefabInstance: {fileID: 0}
  m_PrefabAsset: {fileID: 0}
  m_GameObject: {fileID: 874605735}
  m_Enabled: 1
  m_SourcePositions:
  - {x: -6.4548373, y: 8.806516, z: 6.631113}
  - {x: -6.4548373, y: -1.5343618, z: 6.631113}
  - {x: 8.993203, y: 8.806516, z: 6.631113}
  - {x: 8.993203, y: -1.5343618, z: 6.631113}
  - {x: -11.939235, y: 8.806516, z: 6.631113}
  - {x: -11.939235, y: -1.5343618, z: 6.631113}
  - {x: 3.7731261, y: 8.806516, z: 6.631113}
  - {x: 3.7731261, y: -1.5343618, z: 6.631113}
  - {x: 20.137163, y: 8.806516, z: 6.631113}
  - {x: 20.137163, y: -1.5343618, z: 6.631113}
  - {x: 14.257168, y: 8.806516, z: 6.631113}
  - {x: 14.257168, y: -1.5343618, z: 6.631113}
  - {x: -6.4548373, y: 2.3566551, z: 6.631113}
  - {x: 8.993203, y: 2.3566551, z: 6.631113}
  - {x: -11.939235, y: 2.3566551, z: 6.631113}
  - {x: 3.7731261, y: 2.3566551, z: 6.631113}
  - {x: 20.137163, y: 2.3566551, z: 6.631113}
  - {x: 14.257168, y: 2.3566551, z: 6.631113}
  - {x: -1.5323329, y: 8.806516, z: 6.631113}
  - {x: -1.5323329, y: -1.5343618, z: 6.631113}
  - {x: -1.5323329, y: 2.3566551, z: 6.631113}
  - {x: -6.4548373, y: 8.806516, z: -23.531504}
  - {x: -6.4548373, y: -1.5343618, z: -23.531504}
  - {x: 8.993203, y: 8.806516, z: -23.531504}
  - {x: 8.993203, y: -1.5343618, z: -23.531504}
  - {x: -11.939235, y: 8.806516, z: -23.531504}
  - {x: -11.939235, y: -1.5343618, z: -23.531504}
  - {x: 3.7731261, y: 8.806516, z: -23.531504}
  - {x: 3.7731261, y: -1.5343618, z: -23.531504}
  - {x: 20.137163, y: 8.806516, z: -23.531504}
  - {x: 20.137163, y: -1.5343618, z: -23.531504}
  - {x: 14.257168, y: 8.806516, z: -23.531504}
  - {x: 14.257168, y: -1.5343618, z: -23.531504}
  - {x: -6.4548373, y: 2.3566551, z: -23.531504}
  - {x: 8.993203, y: 2.3566551, z: -23.531504}
  - {x: -11.939235, y: 2.3566551, z: -23.531504}
  - {x: 3.7731261, y: 2.3566551, z: -23.531504}
  - {x: 20.137163, y: 2.3566551, z: -23.531504}
  - {x: 14.257168, y: 2.3566551, z: -23.531504}
  - {x: -1.5323329, y: 8.806516, z: -23.531504}
  - {x: -1.5323329, y: -1.5343618, z: -23.531504}
  - {x: -1.5323329, y: 2.3566551, z: -23.531504}
  - {x: -6.4548373, y: 8.806516, z: -19.921879}
  - {x: -6.0616884, y: -1.5343618, z: -19.921879}
  - {x: 8.993203, y: 8.806516, z: -19.921879}
  - {x: 8.993203, y: -1.5343618, z: -19.921879}
  - {x: -11.939235, y: 8.806516, z: -19.921879}
  - {x: -11.939235, y: -1.5343618, z: -19.921879}
  - {x: 3.7731261, y: 8.806516, z: -19.921879}
  - {x: 3.7731261, y: -1.5343618, z: -19.921879}
  - {x: 20.137163, y: 8.806516, z: -19.921879}
  - {x: 20.137163, y: -1.5343618, z: -19.921879}
  - {x: 14.257168, y: 8.806516, z: -19.921879}
  - {x: 14.257168, y: -1.5343618, z: -19.921879}
  - {x: -6.4548373, y: 2.3566551, z: -19.921879}
  - {x: 8.993203, y: 2.3566551, z: -19.921879}
  - {x: -11.939235, y: 2.3566551, z: -19.921879}
  - {x: 3.7731261, y: 2.3566551, z: -19.921879}
  - {x: 20.137163, y: 2.3566551, z: -19.921879}
  - {x: 14.257168, y: 2.3566551, z: -19.921879}
  - {x: -1.5323329, y: 8.806516, z: -19.921879}
  - {x: -1.5323329, y: -1.5343618, z: -19.921879}
  - {x: -1.5323329, y: 2.3566551, z: -19.921879}
  - {x: -6.4548373, y: 8.806516, z: -16.06502}
  - {x: -6.4548373, y: -1.5343618, z: -16.06502}
  - {x: 8.993203, y: 8.806516, z: -16.06502}
  - {x: 8.993203, y: -1.5343618, z: -16.06502}
  - {x: -11.939235, y: 8.806516, z: -16.06502}
  - {x: -11.939235, y: -1.5343618, z: -16.06502}
  - {x: 3.7731261, y: 8.806516, z: -16.06502}
  - {x: 3.7731261, y: -1.5343618, z: -16.06502}
  - {x: 20.137163, y: 8.806516, z: -16.06502}
  - {x: 20.137163, y: -1.5343618, z: -16.06502}
  - {x: 14.257168, y: 8.806516, z: -16.06502}
  - {x: 14.257168, y: -1.5343618, z: -16.06502}
  - {x: -6.4548373, y: 2.3566551, z: -16.06502}
  - {x: 8.993203, y: 2.3566551, z: -16.06502}
  - {x: -11.939235, y: 2.3566551, z: -16.06502}
  - {x: 3.7731261, y: 2.3566551, z: -16.06502}
  - {x: 20.137163, y: 2.3566551, z: -16.06502}
  - {x: 14.257168, y: 2.3566551, z: -16.06502}
  - {x: -1.5323329, y: 8.806516, z: -16.06502}
  - {x: -1.5323329, y: -1.5343618, z: -16.06502}
  - {x: -1.5323329, y: 2.3566551, z: -16.06502}
  - {x: -6.4548373, y: 8.806516, z: -12.3070545}
  - {x: -6.4548373, y: -1.5343618, z: -12.3070545}
  - {x: 8.993203, y: 8.806516, z: -12.3070545}
  - {x: 8.993203, y: -1.1842765, z: -13.780704}
  - {x: -11.939235, y: 8.806516, z: -12.3070545}
  - {x: -11.939235, y: -1.5343618, z: -12.3070545}
  - {x: 3.7731261, y: 8.806516, z: -12.3070545}
  - {x: 6.021616, y: 0.8727715, z: -13.780704}
  - {x: 20.137163, y: 8.806516, z: -12.3070545}
  - {x: 20.137163, y: -1.5343618, z: -12.3070545}
  - {x: 14.257168, y: 8.806516, z: -12.3070545}
  - {x: 14.257168, y: -1.1973814, z: -12.3070545}
  - {x: -6.4548373, y: 2.3566551, z: -12.3070545}
  - {x: 1.6883464, y: 2.7763042, z: -6.8005238}
  - {x: -11.939235, y: 2.3566551, z: -12.3070545}
  - {x: 3.7731261, y: 4.7772913, z: -12.3070545}
  - {x: 20.137163, y: 2.3566551, z: -12.3070545}
  - {x: 14.257168, y: 2.3566551, z: -12.3070545}
  - {x: -1.5323329, y: 8.806516, z: -12.3070545}
  - {x: -1.5323329, y: -1.5343618, z: -12.3070545}
  - {x: -1.5323329, y: 2.3566551, z: -12.3070545}
  - {x: -6.4548373, y: 8.806516, z: -8.796325}
  - {x: -6.4548373, y: -1.5343618, z: -8.796325}
  - {x: 8.993203, y: 8.806516, z: -8.796325}
  - {x: 8.993203, y: -1.1842765, z: -8.796325}
  - {x: -11.939235, y: 8.806516, z: -8.796325}
  - {x: -11.939235, y: -1.5343618, z: -8.796325}
  - {x: 3.7731261, y: 8.806516, z: -8.796325}
  - {x: 6.021616, y: 0.8727715, z: -8.796325}
  - {x: 20.137163, y: 8.806516, z: -8.796325}
  - {x: 20.137163, y: -1.5343618, z: -8.796325}
  - {x: 14.257168, y: 8.806516, z: -8.796325}
  - {x: 14.257168, y: -1.1973814, z: -8.796325}
  - {x: -6.4548373, y: 2.3566551, z: -8.796325}
  - {x: 6.695057, y: 2.3566551, z: -8.796325}
  - {x: -11.939235, y: 2.3566551, z: -8.796325}
  - {x: 3.7731261, y: 2.3566551, z: -8.796325}
  - {x: 20.137163, y: 2.3566551, z: -8.796325}
  - {x: 14.257168, y: 2.3566551, z: -8.796325}
  - {x: -1.5323329, y: 8.806516, z: -8.796325}
  - {x: 1.6580772, y: 1.1665359, z: -8.796325}
  - {x: -1.5323329, y: 2.3566551, z: -8.796325}
  - {x: -6.4548373, y: 8.806516, z: -4.8405704}
  - {x: -6.4548373, y: -1.5343618, z: -4.8405704}
  - {x: 8.993203, y: 8.806516, z: -4.8405704}
  - {x: 9.349902, y: -1.2554649, z: -1.9392796}
  - {x: -11.939235, y: 8.806516, z: -4.8405704}
  - {x: -11.939235, y: -1.5343618, z: -4.8405704}
  - {x: 3.7731261, y: 8.806516, z: -4.8405704}
  - {x: 3.7731261, y: -1.5343618, z: -4.8405704}
  - {x: 20.137163, y: 8.806516, z: -4.8405704}
  - {x: 20.137163, y: -1.5343618, z: -4.8405704}
  - {x: 14.257168, y: 8.806516, z: -4.8405704}
  - {x: 10.899697, y: -1.2109127, z: -10.787819}
  - {x: -6.4548373, y: 2.3566551, z: -4.8405704}
  - {x: 6.930959, y: 3.292191, z: -5.2275963}
  - {x: -11.939235, y: 2.3566551, z: -4.8405704}
  - {x: 3.7731261, y: 2.3566551, z: -4.8405704}
  - {x: 20.137163, y: 2.3566551, z: -4.8405704}
  - {x: 14.257168, y: 2.3566551, z: -4.8405704}
  - {x: -1.5323329, y: 8.806516, z: -4.8405704}
  - {x: 1.6580772, y: 1.1665359, z: -4.8405704}
  - {x: -1.5323329, y: 2.3566551, z: -4.8405704}
  - {x: -6.4548373, y: 8.806516, z: -0.7364769}
  - {x: -6.4548373, y: -1.5343618, z: -0.7364769}
  - {x: 8.993203, y: 8.806516, z: -0.7364769}
  - {x: 8.993203, y: -1.5343618, z: -0.7364769}
  - {x: -11.939235, y: 8.806516, z: -0.7364769}
  - {x: -11.939235, y: -1.5343618, z: -0.7364769}
  - {x: 3.7731261, y: 8.806516, z: -0.7364769}
  - {x: 3.7731261, y: -1.5343618, z: -0.7364769}
  - {x: 20.137163, y: 8.806516, z: -0.7364769}
  - {x: 20.137163, y: -1.5343618, z: -0.7364769}
  - {x: 14.257168, y: 8.806516, z: -0.7364769}
  - {x: 14.257168, y: -1.5343618, z: -0.7364769}
  - {x: -6.4548373, y: 2.3566551, z: -0.7364769}
  - {x: 8.993203, y: 2.3566551, z: -0.7364769}
  - {x: -11.939235, y: 2.3566551, z: -0.7364769}
  - {x: 3.7731261, y: 2.3566551, z: -0.7364769}
  - {x: 20.137163, y: 2.3566551, z: -0.7364769}
  - {x: 14.257168, y: 2.3566551, z: -0.7364769}
  - {x: -1.5323329, y: 8.806516, z: -0.7364769}
  - {x: -1.5323329, y: -1.5343618, z: -0.7364769}
  - {x: -1.5323329, y: 2.3566551, z: -0.7364769}
  - {x: -6.4548373, y: 8.806516, z: 2.972042}
  - {x: -6.4548373, y: -1.5343618, z: 2.972042}
  - {x: 8.993203, y: 8.806516, z: 2.972042}
  - {x: 8.993203, y: -1.5343618, z: 2.972042}
  - {x: -11.939235, y: 8.806516, z: 2.972042}
  - {x: -11.939235, y: -1.5343618, z: 2.972042}
  - {x: 3.7731261, y: 8.806516, z: 2.972042}
  - {x: 3.7731261, y: -1.5343618, z: 2.972042}
  - {x: 20.137163, y: 8.806516, z: 2.972042}
  - {x: 20.137163, y: -1.5343618, z: 2.972042}
  - {x: 14.257168, y: 8.806516, z: 2.972042}
  - {x: 14.257168, y: -1.5343618, z: 1.788044}
  - {x: -6.4548373, y: 2.3566551, z: 2.972042}
  - {x: 8.993203, y: 2.3566551, z: 2.972042}
  - {x: -11.939235, y: 2.3566551, z: 2.972042}
  - {x: 3.7731261, y: 2.3566551, z: 2.972042}
  - {x: 20.137163, y: 2.3566551, z: 2.972042}
  - {x: 14.257168, y: 2.3566551, z: 2.972042}
  - {x: -1.5323329, y: 8.806516, z: 2.972042}
  - {x: -1.5323329, y: -1.5343618, z: 2.972042}
  - {x: -1.5323329, y: 2.3566551, z: 2.972042}
  - {x: 3.7731261, y: 0.8727715, z: -13.780704}
  - {x: 3.7731261, y: 0.8727715, z: -8.796325}
  - {x: 6.021616, y: -1.5343618, z: -13.780704}
  - {x: 6.021616, y: -1.5343618, z: -8.796325}
  - {x: 3.7731261, y: -1.5343618, z: -8.796325}
  - {x: 3.7731261, y: -1.5343618, z: -13.780704}
  - {x: 8.993203, y: -1.1842765, z: -11.099201}
  - {x: 6.021616, y: -1.5343618, z: -11.099201}
  - {x: 3.7731261, y: -1.5343618, z: -11.099201}
  - {x: 3.7731261, y: 0.8727715, z: -11.099201}
  - {x: 6.021616, y: 0.8727715, z: -11.099201}
  - {x: 7.5302963, y: -1.5343618, z: -13.780704}
  - {x: 7.5302963, y: -1.5343618, z: -11.099201}
  - {x: 7.5302963, y: 0.8727715, z: -13.780704}
  - {x: 7.5302963, y: 0.8727715, z: -11.099201}
  - {x: 7.5302963, y: -1.5343618, z: -8.796325}
  - {x: 7.5302963, y: 0.8727715, z: -8.796325}
  - {x: 1.6580772, y: -1.5343618, z: -8.796325}
  - {x: 1.6580772, y: -1.5343618, z: -4.8405704}
  - {x: -2.8646894, y: 1.1665359, z: -8.796325}
  - {x: -2.8646894, y: 1.1665359, z: -4.8405704}
  - {x: -2.8646894, y: -1.5343618, z: -4.8405704}
  - {x: -2.8646894, y: -1.5343618, z: -8.796325}
  - {x: -0.6420018, y: 1.1665359, z: -8.796325}
  - {x: -0.6420018, y: 1.1665359, z: -4.8405704}
  - {x: -0.6420018, y: -1.5343618, z: -4.8405704}
  - {x: -0.6420018, y: -1.5343618, z: -8.796325}
  - {x: 5.4116697, y: 0.2312541, z: -3.227993}
  - {x: 5.4116697, y: -1.2554649, z: -1.9392796}
  - {x: 14.257168, y: -1.2109127, z: -4.8405704}
  - {x: 9.325397, y: 1.6076849, z: -5.8184357}
  - {x: 11.965946, y: -1.2109127, z: -5.8184357}
  - {x: 8.993203, y: 3.6047301, z: -12.3070545}
  - {x: 7.1518564, y: 5.7025332, z: -13.247855}
  - {x: 7.1518564, y: 2.7763042, z: -11.2319765}
  - {x: 8.993203, y: 2.3566551, z: -8.796325}
  m_Dering: 1
--- !u!1 &878701951
GameObject:
  m_ObjectHideFlags: 0
  m_CorrespondingSourceObject: {fileID: 0}
  m_PrefabInstance: {fileID: 0}
  m_PrefabAsset: {fileID: 0}
  serializedVersion: 6
  m_Component:
  - component: {fileID: 878701952}
  - component: {fileID: 878701953}
  m_Layer: 5
  m_Name: HealthBar
  m_TagString: Untagged
  m_Icon: {fileID: 0}
  m_NavMeshLayer: 0
  m_StaticEditorFlags: 0
  m_IsActive: 0
--- !u!224 &878701952
RectTransform:
  m_ObjectHideFlags: 0
  m_CorrespondingSourceObject: {fileID: 0}
  m_PrefabInstance: {fileID: 0}
  m_PrefabAsset: {fileID: 0}
  m_GameObject: {fileID: 878701951}
  m_LocalRotation: {x: 0, y: 0, z: 0, w: 1}
  m_LocalPosition: {x: 0, y: 0, z: 0}
  m_LocalScale: {x: 1, y: 1, z: 1}
  m_ConstrainProportionsScale: 0
  m_Children:
  - {fileID: 586367541}
  - {fileID: 742755640}
  m_Father: {fileID: 1976881540}
  m_RootOrder: 0
  m_LocalEulerAnglesHint: {x: 0, y: 0, z: 0}
  m_AnchorMin: {x: 0.5, y: 0.5}
  m_AnchorMax: {x: 0.5, y: 0.5}
  m_AnchoredPosition: {x: 0, y: 0}
  m_SizeDelta: {x: 100, y: 100}
  m_Pivot: {x: 0.5, y: 0.5}
--- !u!114 &878701953
MonoBehaviour:
  m_ObjectHideFlags: 0
  m_CorrespondingSourceObject: {fileID: 0}
  m_PrefabInstance: {fileID: 0}
  m_PrefabAsset: {fileID: 0}
  m_GameObject: {fileID: 878701951}
  m_Enabled: 1
  m_EditorHideFlags: 0
  m_Script: {fileID: 11500000, guid: 103461642909e3c4d81a3d675f41fc4a, type: 3}
  m_Name: 
  m_EditorClassIdentifier: 
  gradient:
    serializedVersion: 2
    key0: {r: 1, g: 0, b: 0, a: 1}
    key1: {r: 0.7529412, g: 0.7529412, b: 0, a: 1}
    key2: {r: 0, g: 1, b: 0, a: 0}
    key3: {r: 0, g: 0, b: 0, a: 0}
    key4: {r: 0, g: 0, b: 0, a: 0}
    key5: {r: 0, g: 0, b: 0, a: 0}
    key6: {r: 0, g: 0, b: 0, a: 0}
    key7: {r: 0, g: 0, b: 0, a: 0}
    ctime0: 0
    ctime1: 32768
    ctime2: 65535
    ctime3: 0
    ctime4: 0
    ctime5: 0
    ctime6: 0
    ctime7: 0
    atime0: 0
    atime1: 65535
    atime2: 0
    atime3: 0
    atime4: 0
    atime5: 0
    atime6: 0
    atime7: 0
    m_Mode: 0
    m_NumColorKeys: 3
    m_NumAlphaKeys: 2
  Image: {fileID: 742755641}
  EffectImage: {fileID: 586367542}
  delay: 1
  quitSpeed: 0.005
  debug: 1
  val: 19
  max: 20
--- !u!1 &990540429 stripped
GameObject:
  m_CorrespondingSourceObject: {fileID: 9055754276999149636, guid: ed8710581b497574bb862f975face5c4,
    type: 3}
  m_PrefabInstance: {fileID: 1964759213}
  m_PrefabAsset: {fileID: 0}
--- !u!114 &990540438
MonoBehaviour:
  m_ObjectHideFlags: 0
  m_CorrespondingSourceObject: {fileID: 0}
  m_PrefabInstance: {fileID: 0}
  m_PrefabAsset: {fileID: 0}
  m_GameObject: {fileID: 990540429}
  m_Enabled: 1
  m_EditorHideFlags: 0
  m_Script: {fileID: 11500000, guid: 9e963f02338290545ac358b8231e8d38, type: 3}
  m_Name: 
  m_EditorClassIdentifier: 
--- !u!114 &990540439
MonoBehaviour:
  m_ObjectHideFlags: 0
  m_CorrespondingSourceObject: {fileID: 0}
  m_PrefabInstance: {fileID: 0}
  m_PrefabAsset: {fileID: 0}
  m_GameObject: {fileID: 990540429}
  m_Enabled: 1
  m_EditorHideFlags: 0
  m_Script: {fileID: 11500000, guid: 09e7164f9d16d3742b082f0173d2acab, type: 3}
  m_Name: 
  m_EditorClassIdentifier: 
--- !u!114 &990540440
MonoBehaviour:
  m_ObjectHideFlags: 0
  m_CorrespondingSourceObject: {fileID: 0}
  m_PrefabInstance: {fileID: 0}
  m_PrefabAsset: {fileID: 0}
  m_GameObject: {fileID: 990540429}
  m_Enabled: 1
  m_EditorHideFlags: 0
  m_Script: {fileID: 11500000, guid: 872d027a912f1df4cb14334b773c2ccf, type: 3}
  m_Name: 
  m_EditorClassIdentifier: 
  ai: {fileID: 0}
--- !u!1 &1028513131
GameObject:
  m_ObjectHideFlags: 0
  m_CorrespondingSourceObject: {fileID: 0}
  m_PrefabInstance: {fileID: 0}
  m_PrefabAsset: {fileID: 0}
  serializedVersion: 6
  m_Component:
  - component: {fileID: 1028513133}
  - component: {fileID: 1028513132}
  m_Layer: 0
  m_Name: Reflection Probe
  m_TagString: Untagged
  m_Icon: {fileID: 0}
  m_NavMeshLayer: 0
  m_StaticEditorFlags: 0
  m_IsActive: 1
--- !u!215 &1028513132
ReflectionProbe:
  m_ObjectHideFlags: 0
  m_CorrespondingSourceObject: {fileID: 0}
  m_PrefabInstance: {fileID: 0}
  m_PrefabAsset: {fileID: 0}
  m_GameObject: {fileID: 1028513131}
  m_Enabled: 1
  serializedVersion: 2
  m_Type: 0
  m_Mode: 0
  m_RefreshMode: 0
  m_TimeSlicingMode: 0
  m_Resolution: 128
  m_UpdateFrequency: 0
  m_BoxSize: {x: 40.607887, y: 19.86776, z: 37.433754}
  m_BoxOffset: {x: 2.4737587, y: -4.2929897, z: 3.4355164}
  m_NearClip: 0.3
  m_FarClip: 1000
  m_ShadowDistance: 100
  m_ClearFlags: 1
  m_BackGroundColor: {r: 0.19215687, g: 0.3019608, b: 0.4745098, a: 0}
  m_CullingMask:
    serializedVersion: 2
    m_Bits: 4294967295
  m_IntensityMultiplier: 1
  m_BlendDistance: 1
  m_HDR: 1
  m_BoxProjection: 1
  m_RenderDynamicObjects: 0
  m_UseOcclusionCulling: 1
  m_Importance: 1
  m_CustomBakedTexture: {fileID: 0}
--- !u!4 &1028513133
Transform:
  m_ObjectHideFlags: 0
  m_CorrespondingSourceObject: {fileID: 0}
  m_PrefabInstance: {fileID: 0}
  m_PrefabAsset: {fileID: 0}
  m_GameObject: {fileID: 1028513131}
  m_LocalRotation: {x: -0, y: -0, z: -0, w: 1}
  m_LocalPosition: {x: 1.5, y: 12, z: 10}
  m_LocalScale: {x: 1, y: 1, z: 1}
  m_ConstrainProportionsScale: 0
  m_Children: []
  m_Father: {fileID: 2114283753834967213}
  m_RootOrder: 1
  m_LocalEulerAnglesHint: {x: 0, y: 0, z: 0}
--- !u!114 &1079598053 stripped
MonoBehaviour:
  m_CorrespondingSourceObject: {fileID: 7717662064693330893, guid: 61d5c5f6fc3b9ad4ab69064e1e844dd9,
    type: 3}
  m_PrefabInstance: {fileID: 121254941}
  m_PrefabAsset: {fileID: 0}
  m_GameObject: {fileID: 0}
  m_Enabled: 1
  m_EditorHideFlags: 0
  m_Script: {fileID: 11500000, guid: 09e7164f9d16d3742b082f0173d2acab, type: 3}
  m_Name: 
  m_EditorClassIdentifier: 
--- !u!1001 &1100513243
PrefabInstance:
  m_ObjectHideFlags: 0
  serializedVersion: 2
  m_Modification:
    m_TransformParent: {fileID: 0}
    m_Modifications:
    - target: {fileID: 315416593372116062, guid: d9a69cf39227342479c182ebf20b1ebe,
        type: 3}
      propertyPath: m_Follow
      value: 
      objectReference: {fileID: 3893294199639930361}
    - target: {fileID: 315416593372116062, guid: d9a69cf39227342479c182ebf20b1ebe,
        type: 3}
      propertyPath: m_LookAt
      value: 
      objectReference: {fileID: 3893294199639930361}
    - target: {fileID: 315416593372116062, guid: d9a69cf39227342479c182ebf20b1ebe,
        type: 3}
      propertyPath: m_Lens.m_SensorSize.x
      value: 1.8882467
      objectReference: {fileID: 0}
    - target: {fileID: 315416593372116063, guid: d9a69cf39227342479c182ebf20b1ebe,
        type: 3}
      propertyPath: m_RootOrder
      value: 8
      objectReference: {fileID: 0}
    - target: {fileID: 315416593372116063, guid: d9a69cf39227342479c182ebf20b1ebe,
        type: 3}
      propertyPath: m_LocalPosition.x
      value: 17.382668
      objectReference: {fileID: 0}
    - target: {fileID: 315416593372116063, guid: d9a69cf39227342479c182ebf20b1ebe,
        type: 3}
      propertyPath: m_LocalPosition.y
      value: 11.077212
      objectReference: {fileID: 0}
    - target: {fileID: 315416593372116063, guid: d9a69cf39227342479c182ebf20b1ebe,
        type: 3}
      propertyPath: m_LocalPosition.z
      value: -8.116526
      objectReference: {fileID: 0}
    - target: {fileID: 315416593372116063, guid: d9a69cf39227342479c182ebf20b1ebe,
        type: 3}
      propertyPath: m_LocalRotation.w
      value: 0.8146536
      objectReference: {fileID: 0}
    - target: {fileID: 315416593372116063, guid: d9a69cf39227342479c182ebf20b1ebe,
        type: 3}
      propertyPath: m_LocalRotation.x
      value: 0.21828581
      objectReference: {fileID: 0}
    - target: {fileID: 315416593372116063, guid: d9a69cf39227342479c182ebf20b1ebe,
        type: 3}
      propertyPath: m_LocalRotation.y
      value: -0.5189916
      objectReference: {fileID: 0}
    - target: {fileID: 315416593372116063, guid: d9a69cf39227342479c182ebf20b1ebe,
        type: 3}
      propertyPath: m_LocalRotation.z
      value: 0.1390634
      objectReference: {fileID: 0}
    - target: {fileID: 315416593372116063, guid: d9a69cf39227342479c182ebf20b1ebe,
        type: 3}
      propertyPath: m_LocalEulerAnglesHint.x
      value: 30
      objectReference: {fileID: 0}
    - target: {fileID: 315416593372116063, guid: d9a69cf39227342479c182ebf20b1ebe,
        type: 3}
      propertyPath: m_LocalEulerAnglesHint.y
      value: -65
      objectReference: {fileID: 0}
    - target: {fileID: 315416593372116063, guid: d9a69cf39227342479c182ebf20b1ebe,
        type: 3}
      propertyPath: m_LocalEulerAnglesHint.z
      value: 0
      objectReference: {fileID: 0}
    - target: {fileID: 315416593372116384, guid: d9a69cf39227342479c182ebf20b1ebe,
        type: 3}
      propertyPath: m_Name
      value: PlayerFollowCamera
      objectReference: {fileID: 0}
    m_RemovedComponents: []
  m_SourcePrefab: {fileID: 100100000, guid: d9a69cf39227342479c182ebf20b1ebe, type: 3}
--- !u!1 &1162369890 stripped
GameObject:
  m_CorrespondingSourceObject: {fileID: 1971228045677015210, guid: 09aade0ecefd01e4b8f7661acf64f5c2,
    type: 3}
  m_PrefabInstance: {fileID: 8345070700268369567}
  m_PrefabAsset: {fileID: 0}
--- !u!54 &1162369895
Rigidbody:
  m_ObjectHideFlags: 0
  m_CorrespondingSourceObject: {fileID: 0}
  m_PrefabInstance: {fileID: 0}
  m_PrefabAsset: {fileID: 0}
  m_GameObject: {fileID: 1162369890}
  serializedVersion: 2
  m_Mass: 1
  m_Drag: 0
  m_AngularDrag: 0.05
  m_UseGravity: 1
  m_IsKinematic: 0
  m_Interpolate: 0
  m_Constraints: 0
  m_CollisionDetection: 0
--- !u!1001 &1228546557
PrefabInstance:
  m_ObjectHideFlags: 0
  serializedVersion: 2
  m_Modification:
    m_TransformParent: {fileID: 0}
    m_Modifications:
    - target: {fileID: 4217215492532890971, guid: fd78f4da1d5cb2845b206ce9a221ba7c,
        type: 3}
      propertyPath: m_RootOrder
      value: 7
      objectReference: {fileID: 0}
    - target: {fileID: 4217215492532890971, guid: fd78f4da1d5cb2845b206ce9a221ba7c,
        type: 3}
      propertyPath: m_LocalPosition.x
      value: 17.382668
      objectReference: {fileID: 0}
    - target: {fileID: 4217215492532890971, guid: fd78f4da1d5cb2845b206ce9a221ba7c,
        type: 3}
      propertyPath: m_LocalPosition.y
      value: 11.077212
      objectReference: {fileID: 0}
    - target: {fileID: 4217215492532890971, guid: fd78f4da1d5cb2845b206ce9a221ba7c,
        type: 3}
      propertyPath: m_LocalPosition.z
      value: -8.116526
      objectReference: {fileID: 0}
    - target: {fileID: 4217215492532890971, guid: fd78f4da1d5cb2845b206ce9a221ba7c,
        type: 3}
      propertyPath: m_LocalRotation.w
      value: 0.8146536
      objectReference: {fileID: 0}
    - target: {fileID: 4217215492532890971, guid: fd78f4da1d5cb2845b206ce9a221ba7c,
        type: 3}
      propertyPath: m_LocalRotation.x
      value: 0.21828581
      objectReference: {fileID: 0}
    - target: {fileID: 4217215492532890971, guid: fd78f4da1d5cb2845b206ce9a221ba7c,
        type: 3}
      propertyPath: m_LocalRotation.y
      value: -0.5189916
      objectReference: {fileID: 0}
    - target: {fileID: 4217215492532890971, guid: fd78f4da1d5cb2845b206ce9a221ba7c,
        type: 3}
      propertyPath: m_LocalRotation.z
      value: 0.1390634
      objectReference: {fileID: 0}
    - target: {fileID: 4217215492532890971, guid: fd78f4da1d5cb2845b206ce9a221ba7c,
        type: 3}
      propertyPath: m_LocalEulerAnglesHint.x
      value: 30
      objectReference: {fileID: 0}
    - target: {fileID: 4217215492532890971, guid: fd78f4da1d5cb2845b206ce9a221ba7c,
        type: 3}
      propertyPath: m_LocalEulerAnglesHint.y
      value: 45
      objectReference: {fileID: 0}
    - target: {fileID: 4217215492532890971, guid: fd78f4da1d5cb2845b206ce9a221ba7c,
        type: 3}
      propertyPath: m_LocalEulerAnglesHint.z
      value: 0
      objectReference: {fileID: 0}
    - target: {fileID: 4217215492532890972, guid: fd78f4da1d5cb2845b206ce9a221ba7c,
        type: 3}
      propertyPath: near clip plane
      value: 0.001
      objectReference: {fileID: 0}
    - target: {fileID: 4217215492532890974, guid: fd78f4da1d5cb2845b206ce9a221ba7c,
        type: 3}
      propertyPath: m_Name
      value: MainCamera
      objectReference: {fileID: 0}
    m_RemovedComponents: []
  m_SourcePrefab: {fileID: 100100000, guid: fd78f4da1d5cb2845b206ce9a221ba7c, type: 3}
--- !u!4 &1597284311 stripped
Transform:
  m_CorrespondingSourceObject: {fileID: 7717662066268189857, guid: 61d5c5f6fc3b9ad4ab69064e1e844dd9,
    type: 3}
  m_PrefabInstance: {fileID: 121254941}
  m_PrefabAsset: {fileID: 0}
--- !u!1 &1764214107
GameObject:
  m_ObjectHideFlags: 0
  m_CorrespondingSourceObject: {fileID: 0}
  m_PrefabInstance: {fileID: 0}
  m_PrefabAsset: {fileID: 0}
  serializedVersion: 6
  m_Component:
  - component: {fileID: 1764214108}
  - component: {fileID: 1764214109}
  m_Layer: 0
  m_Name: Reflection Probe
  m_TagString: Untagged
  m_Icon: {fileID: 0}
  m_NavMeshLayer: 0
  m_StaticEditorFlags: 0
  m_IsActive: 1
--- !u!4 &1764214108
Transform:
  m_ObjectHideFlags: 0
  m_CorrespondingSourceObject: {fileID: 0}
  m_PrefabInstance: {fileID: 0}
  m_PrefabAsset: {fileID: 0}
  m_GameObject: {fileID: 1764214107}
  m_LocalRotation: {x: -0, y: -0, z: -0, w: 1}
  m_LocalPosition: {x: 0.965, y: 1.566, z: 15.191}
  m_LocalScale: {x: 1, y: 1, z: 1}
  m_ConstrainProportionsScale: 0
  m_Children: []
  m_Father: {fileID: 2114283753834967213}
  m_RootOrder: 2
  m_LocalEulerAnglesHint: {x: 0, y: 0, z: 0}
--- !u!215 &1764214109
ReflectionProbe:
  m_ObjectHideFlags: 0
  m_CorrespondingSourceObject: {fileID: 0}
  m_PrefabInstance: {fileID: 0}
  m_PrefabAsset: {fileID: 0}
  m_GameObject: {fileID: 1764214107}
  m_Enabled: 1
  serializedVersion: 2
  m_Type: 0
  m_Mode: 0
  m_RefreshMode: 0
  m_TimeSlicingMode: 0
  m_Resolution: 128
  m_UpdateFrequency: 0
  m_BoxSize: {x: 8.880261, y: 3.6585498, z: 4.8670416}
  m_BoxOffset: {x: -0.11674833, y: 0.1915052, z: -0.35990858}
  m_NearClip: 0.3
  m_FarClip: 1000
  m_ShadowDistance: 100
  m_ClearFlags: 1
  m_BackGroundColor: {r: 0.19215687, g: 0.3019608, b: 0.4745098, a: 0}
  m_CullingMask:
    serializedVersion: 2
    m_Bits: 4294967295
  m_IntensityMultiplier: 1
  m_BlendDistance: 1
  m_HDR: 1
  m_BoxProjection: 0
  m_RenderDynamicObjects: 0
  m_UseOcclusionCulling: 1
  m_Importance: 1
  m_CustomBakedTexture: {fileID: 0}
--- !u!1 &1934205457
GameObject:
  m_ObjectHideFlags: 0
  m_CorrespondingSourceObject: {fileID: 0}
  m_PrefabInstance: {fileID: 0}
  m_PrefabAsset: {fileID: 0}
  serializedVersion: 6
  m_Component:
  - component: {fileID: 1934205458}
  - component: {fileID: 1934205460}
  - component: {fileID: 1934205459}
  m_Layer: 5
  m_Name: MenuText (TMP)
  m_TagString: Untagged
  m_Icon: {fileID: 0}
  m_NavMeshLayer: 0
  m_StaticEditorFlags: 0
  m_IsActive: 1
--- !u!224 &1934205458
RectTransform:
  m_ObjectHideFlags: 0
  m_CorrespondingSourceObject: {fileID: 0}
  m_PrefabInstance: {fileID: 0}
  m_PrefabAsset: {fileID: 0}
  m_GameObject: {fileID: 1934205457}
  m_LocalRotation: {x: 0, y: 0, z: 0, w: 1}
  m_LocalPosition: {x: 0, y: 0, z: 0}
  m_LocalScale: {x: 1, y: 1, z: 1}
  m_ConstrainProportionsScale: 0
  m_Children: []
  m_Father: {fileID: 2134330857}
  m_RootOrder: 0
  m_LocalEulerAnglesHint: {x: 0, y: 0, z: 0}
  m_AnchorMin: {x: 0, y: 0}
  m_AnchorMax: {x: 1, y: 1}
  m_AnchoredPosition: {x: 0, y: 0}
  m_SizeDelta: {x: 0, y: 0}
  m_Pivot: {x: 0.5, y: 0.5}
--- !u!114 &1934205459
MonoBehaviour:
  m_ObjectHideFlags: 0
  m_CorrespondingSourceObject: {fileID: 0}
  m_PrefabInstance: {fileID: 0}
  m_PrefabAsset: {fileID: 0}
  m_GameObject: {fileID: 1934205457}
  m_Enabled: 1
  m_EditorHideFlags: 0
  m_Script: {fileID: 11500000, guid: f4688fdb7df04437aeb418b961361dc5, type: 3}
  m_Name: 
  m_EditorClassIdentifier: 
  m_Material: {fileID: 0}
  m_Color: {r: 1, g: 1, b: 1, a: 1}
  m_RaycastTarget: 1
  m_RaycastPadding: {x: 0, y: 0, z: 0, w: 0}
  m_Maskable: 1
  m_OnCullStateChanged:
    m_PersistentCalls:
      m_Calls: []
  m_text: Go Menu
  m_isRightToLeft: 0
  m_fontAsset: {fileID: 11400000, guid: 8f586378b4e144a9851e7b34d9b748ee, type: 2}
  m_sharedMaterial: {fileID: 2180264, guid: 8f586378b4e144a9851e7b34d9b748ee, type: 2}
  m_fontSharedMaterials: []
  m_fontMaterial: {fileID: 0}
  m_fontMaterials: []
  m_fontColor32:
    serializedVersion: 2
    rgba: 4281479730
  m_fontColor: {r: 0.19607843, g: 0.19607843, b: 0.19607843, a: 1}
  m_enableVertexGradient: 0
  m_colorMode: 3
  m_fontColorGradient:
    topLeft: {r: 1, g: 1, b: 1, a: 1}
    topRight: {r: 1, g: 1, b: 1, a: 1}
    bottomLeft: {r: 1, g: 1, b: 1, a: 1}
    bottomRight: {r: 1, g: 1, b: 1, a: 1}
  m_fontColorGradientPreset: {fileID: 0}
  m_spriteAsset: {fileID: 0}
  m_tintAllSprites: 0
  m_StyleSheet: {fileID: 0}
  m_TextStyleHashCode: -1183493901
  m_overrideHtmlColors: 0
  m_faceColor:
    serializedVersion: 2
    rgba: 4294967295
  m_fontSize: 24
  m_fontSizeBase: 24
  m_fontWeight: 400
  m_enableAutoSizing: 0
  m_fontSizeMin: 18
  m_fontSizeMax: 72
  m_fontStyle: 0
  m_HorizontalAlignment: 2
  m_VerticalAlignment: 512
  m_textAlignment: 65535
  m_characterSpacing: 0
  m_wordSpacing: 0
  m_lineSpacing: 0
  m_lineSpacingMax: 0
  m_paragraphSpacing: 0
  m_charWidthMaxAdj: 0
  m_enableWordWrapping: 1
  m_wordWrappingRatios: 0.4
  m_overflowMode: 0
  m_linkedTextComponent: {fileID: 0}
  parentLinkedComponent: {fileID: 0}
  m_enableKerning: 1
  m_enableExtraPadding: 0
  checkPaddingRequired: 0
  m_isRichText: 1
  m_parseCtrlCharacters: 1
  m_isOrthographic: 1
  m_isCullingEnabled: 0
  m_horizontalMapping: 0
  m_verticalMapping: 0
  m_uvLineOffset: 0
  m_geometrySortingOrder: 0
  m_IsTextObjectScaleStatic: 0
  m_VertexBufferAutoSizeReduction: 0
  m_useMaxVisibleDescender: 1
  m_pageToDisplay: 1
  m_margin: {x: 0, y: 0, z: 0, w: 0}
  m_isUsingLegacyAnimationComponent: 0
  m_isVolumetricText: 0
  m_hasFontAssetChanged: 0
  m_baseMaterial: {fileID: 0}
  m_maskOffset: {x: 0, y: 0, z: 0, w: 0}
--- !u!222 &1934205460
CanvasRenderer:
  m_ObjectHideFlags: 0
  m_CorrespondingSourceObject: {fileID: 0}
  m_PrefabInstance: {fileID: 0}
  m_PrefabAsset: {fileID: 0}
  m_GameObject: {fileID: 1934205457}
  m_CullTransparentMesh: 1
--- !u!4 &1943861430 stripped
Transform:
  m_CorrespondingSourceObject: {fileID: 8379900264220769560, guid: 09aade0ecefd01e4b8f7661acf64f5c2,
    type: 3}
  m_PrefabInstance: {fileID: 8345070700268369567}
  m_PrefabAsset: {fileID: 0}
--- !u!1001 &1964759213
PrefabInstance:
  m_ObjectHideFlags: 0
  serializedVersion: 2
  m_Modification:
    m_TransformParent: {fileID: 0}
    m_Modifications:
    - target: {fileID: 1534796208, guid: ed8710581b497574bb862f975face5c4, type: 3}
      propertyPath: m_BaseOffset
      value: 0
      objectReference: {fileID: 0}
    - target: {fileID: 8567904938346308350, guid: ed8710581b497574bb862f975face5c4,
        type: 3}
      propertyPath: m_RootOrder
      value: 1
      objectReference: {fileID: 0}
    - target: {fileID: 8567904938346308350, guid: ed8710581b497574bb862f975face5c4,
        type: 3}
      propertyPath: m_LocalPosition.x
      value: -6.26
      objectReference: {fileID: 0}
    - target: {fileID: 8567904938346308350, guid: ed8710581b497574bb862f975face5c4,
        type: 3}
      propertyPath: m_LocalPosition.y
      value: 0.00000047683716
      objectReference: {fileID: 0}
    - target: {fileID: 8567904938346308350, guid: ed8710581b497574bb862f975face5c4,
        type: 3}
      propertyPath: m_LocalPosition.z
      value: 4.23
      objectReference: {fileID: 0}
    - target: {fileID: 8567904938346308350, guid: ed8710581b497574bb862f975face5c4,
        type: 3}
      propertyPath: m_LocalRotation.w
      value: 0.9574532
      objectReference: {fileID: 0}
    - target: {fileID: 8567904938346308350, guid: ed8710581b497574bb862f975face5c4,
        type: 3}
      propertyPath: m_LocalRotation.x
      value: -0
      objectReference: {fileID: 0}
    - target: {fileID: 8567904938346308350, guid: ed8710581b497574bb862f975face5c4,
        type: 3}
      propertyPath: m_LocalRotation.y
      value: -0.28858873
      objectReference: {fileID: 0}
    - target: {fileID: 8567904938346308350, guid: ed8710581b497574bb862f975face5c4,
        type: 3}
      propertyPath: m_LocalRotation.z
      value: -0
      objectReference: {fileID: 0}
    - target: {fileID: 8567904938346308350, guid: ed8710581b497574bb862f975face5c4,
        type: 3}
      propertyPath: m_LocalEulerAnglesHint.x
      value: 0
      objectReference: {fileID: 0}
    - target: {fileID: 8567904938346308350, guid: ed8710581b497574bb862f975face5c4,
        type: 3}
      propertyPath: m_LocalEulerAnglesHint.y
      value: -33.547
      objectReference: {fileID: 0}
    - target: {fileID: 8567904938346308350, guid: ed8710581b497574bb862f975face5c4,
        type: 3}
      propertyPath: m_LocalEulerAnglesHint.z
      value: 0
      objectReference: {fileID: 0}
    - target: {fileID: 9055754276999149636, guid: ed8710581b497574bb862f975face5c4,
        type: 3}
      propertyPath: m_Name
      value: Ramon
      objectReference: {fileID: 0}
    m_RemovedComponents:
    - {fileID: 1534796206, guid: ed8710581b497574bb862f975face5c4, type: 3}
    - {fileID: 1534796207, guid: ed8710581b497574bb862f975face5c4, type: 3}
    - {fileID: 1534796209, guid: ed8710581b497574bb862f975face5c4, type: 3}
  m_SourcePrefab: {fileID: 100100000, guid: ed8710581b497574bb862f975face5c4, type: 3}
--- !u!1 &1976881534
GameObject:
  m_ObjectHideFlags: 0
  m_CorrespondingSourceObject: {fileID: 0}
  m_PrefabInstance: {fileID: 0}
  m_PrefabAsset: {fileID: 0}
  serializedVersion: 6
  m_Component:
  - component: {fileID: 1976881540}
  - component: {fileID: 1976881539}
  - component: {fileID: 1976881538}
  - component: {fileID: 1976881537}
  - component: {fileID: 1976881536}
  - component: {fileID: 1976881535}
  m_Layer: 5
  m_Name: Canvas
  m_TagString: Untagged
  m_Icon: {fileID: 0}
  m_NavMeshLayer: 0
  m_StaticEditorFlags: 0
  m_IsActive: 1
--- !u!114 &1976881535
MonoBehaviour:
  m_ObjectHideFlags: 0
  m_CorrespondingSourceObject: {fileID: 0}
  m_PrefabInstance: {fileID: 0}
  m_PrefabAsset: {fileID: 0}
  m_GameObject: {fileID: 1976881534}
  m_Enabled: 0
  m_EditorHideFlags: 0
  m_Script: {fileID: 11500000, guid: c25bda896266a2844a0e1f897b2c7cb9, type: 3}
  m_Name: 
  m_EditorClassIdentifier: 
  timeToStartHideCanvas: 5
  canvasHideSpeed: 0.5
--- !u!225 &1976881536
CanvasGroup:
  m_ObjectHideFlags: 0
  m_CorrespondingSourceObject: {fileID: 0}
  m_PrefabInstance: {fileID: 0}
  m_PrefabAsset: {fileID: 0}
  m_GameObject: {fileID: 1976881534}
  m_Enabled: 1
  m_Alpha: 1
  m_Interactable: 1
  m_BlocksRaycasts: 1
  m_IgnoreParentGroups: 0
--- !u!114 &1976881537
MonoBehaviour:
  m_ObjectHideFlags: 0
  m_CorrespondingSourceObject: {fileID: 0}
  m_PrefabInstance: {fileID: 0}
  m_PrefabAsset: {fileID: 0}
  m_GameObject: {fileID: 1976881534}
  m_Enabled: 1
  m_EditorHideFlags: 0
  m_Script: {fileID: 11500000, guid: dc42784cf147c0c48a680349fa168899, type: 3}
  m_Name: 
  m_EditorClassIdentifier: 
  m_IgnoreReversedGraphics: 1
  m_BlockingObjects: 0
  m_BlockingMask:
    serializedVersion: 2
    m_Bits: 4294967295
--- !u!114 &1976881538
MonoBehaviour:
  m_ObjectHideFlags: 0
  m_CorrespondingSourceObject: {fileID: 0}
  m_PrefabInstance: {fileID: 0}
  m_PrefabAsset: {fileID: 0}
  m_GameObject: {fileID: 1976881534}
  m_Enabled: 1
  m_EditorHideFlags: 0
  m_Script: {fileID: 11500000, guid: 0cd44c1031e13a943bb63640046fad76, type: 3}
  m_Name: 
  m_EditorClassIdentifier: 
  m_UiScaleMode: 0
  m_ReferencePixelsPerUnit: 100
  m_ScaleFactor: 1
  m_ReferenceResolution: {x: 800, y: 600}
  m_ScreenMatchMode: 0
  m_MatchWidthOrHeight: 0
  m_PhysicalUnit: 3
  m_FallbackScreenDPI: 96
  m_DefaultSpriteDPI: 96
  m_DynamicPixelsPerUnit: 1
  m_PresetInfoIsWorld: 0
--- !u!223 &1976881539
Canvas:
  m_ObjectHideFlags: 0
  m_CorrespondingSourceObject: {fileID: 0}
  m_PrefabInstance: {fileID: 0}
  m_PrefabAsset: {fileID: 0}
  m_GameObject: {fileID: 1976881534}
  m_Enabled: 1
  serializedVersion: 3
  m_RenderMode: 0
  m_Camera: {fileID: 0}
  m_PlaneDistance: 100
  m_PixelPerfect: 0
  m_ReceivesEvents: 1
  m_OverrideSorting: 0
  m_OverridePixelPerfect: 0
  m_SortingBucketNormalizedSize: 0
  m_AdditionalShaderChannelsFlag: 25
  m_SortingLayerID: 0
  m_SortingOrder: 0
  m_TargetDisplay: 0
--- !u!224 &1976881540
RectTransform:
  m_ObjectHideFlags: 0
  m_CorrespondingSourceObject: {fileID: 0}
  m_PrefabInstance: {fileID: 0}
  m_PrefabAsset: {fileID: 0}
  m_GameObject: {fileID: 1976881534}
  m_LocalRotation: {x: 0, y: 0, z: 0, w: 1}
  m_LocalPosition: {x: 0, y: 0, z: 0}
  m_LocalScale: {x: 0, y: 0, z: 0}
  m_ConstrainProportionsScale: 0
  m_Children:
  - {fileID: 878701952}
  - {fileID: 2134330857}
  m_Father: {fileID: 0}
  m_RootOrder: 9
  m_LocalEulerAnglesHint: {x: 0, y: 0, z: 0}
  m_AnchorMin: {x: 0, y: 0}
  m_AnchorMax: {x: 0, y: 0}
  m_AnchoredPosition: {x: 0, y: 0}
  m_SizeDelta: {x: 0, y: 0}
  m_Pivot: {x: 0, y: 0}
--- !u!1001 &1979352518
PrefabInstance:
  m_ObjectHideFlags: 0
  serializedVersion: 2
  m_Modification:
    m_TransformParent: {fileID: 0}
    m_Modifications:
    - target: {fileID: 1663187150, guid: 2f7f3dde7ae722a4aafffe20691ad702, type: 3}
      propertyPath: starterAssetsInputs
      value: 
      objectReference: {fileID: 135756641613574975}
    - target: {fileID: 597308369130767402, guid: 2f7f3dde7ae722a4aafffe20691ad702,
        type: 3}
      propertyPath: m_Pivot.x
      value: 0
      objectReference: {fileID: 0}
    - target: {fileID: 597308369130767402, guid: 2f7f3dde7ae722a4aafffe20691ad702,
        type: 3}
      propertyPath: m_Pivot.y
      value: 0
      objectReference: {fileID: 0}
    - target: {fileID: 597308369130767402, guid: 2f7f3dde7ae722a4aafffe20691ad702,
        type: 3}
      propertyPath: m_RootOrder
      value: 5
      objectReference: {fileID: 0}
    - target: {fileID: 597308369130767402, guid: 2f7f3dde7ae722a4aafffe20691ad702,
        type: 3}
      propertyPath: m_AnchorMax.x
      value: 0
      objectReference: {fileID: 0}
    - target: {fileID: 597308369130767402, guid: 2f7f3dde7ae722a4aafffe20691ad702,
        type: 3}
      propertyPath: m_AnchorMax.y
      value: 0
      objectReference: {fileID: 0}
    - target: {fileID: 597308369130767402, guid: 2f7f3dde7ae722a4aafffe20691ad702,
        type: 3}
      propertyPath: m_AnchorMin.x
      value: 0
      objectReference: {fileID: 0}
    - target: {fileID: 597308369130767402, guid: 2f7f3dde7ae722a4aafffe20691ad702,
        type: 3}
      propertyPath: m_AnchorMin.y
      value: 0
      objectReference: {fileID: 0}
    - target: {fileID: 597308369130767402, guid: 2f7f3dde7ae722a4aafffe20691ad702,
        type: 3}
      propertyPath: m_SizeDelta.x
      value: 0
      objectReference: {fileID: 0}
    - target: {fileID: 597308369130767402, guid: 2f7f3dde7ae722a4aafffe20691ad702,
        type: 3}
      propertyPath: m_SizeDelta.y
      value: 0
      objectReference: {fileID: 0}
    - target: {fileID: 597308369130767402, guid: 2f7f3dde7ae722a4aafffe20691ad702,
        type: 3}
      propertyPath: m_LocalPosition.x
      value: 0
      objectReference: {fileID: 0}
    - target: {fileID: 597308369130767402, guid: 2f7f3dde7ae722a4aafffe20691ad702,
        type: 3}
      propertyPath: m_LocalPosition.y
      value: 0
      objectReference: {fileID: 0}
    - target: {fileID: 597308369130767402, guid: 2f7f3dde7ae722a4aafffe20691ad702,
        type: 3}
      propertyPath: m_LocalPosition.z
      value: 0
      objectReference: {fileID: 0}
    - target: {fileID: 597308369130767402, guid: 2f7f3dde7ae722a4aafffe20691ad702,
        type: 3}
      propertyPath: m_LocalRotation.w
      value: 1
      objectReference: {fileID: 0}
    - target: {fileID: 597308369130767402, guid: 2f7f3dde7ae722a4aafffe20691ad702,
        type: 3}
      propertyPath: m_LocalRotation.x
      value: 0
      objectReference: {fileID: 0}
    - target: {fileID: 597308369130767402, guid: 2f7f3dde7ae722a4aafffe20691ad702,
        type: 3}
      propertyPath: m_LocalRotation.y
      value: 0
      objectReference: {fileID: 0}
    - target: {fileID: 597308369130767402, guid: 2f7f3dde7ae722a4aafffe20691ad702,
        type: 3}
      propertyPath: m_LocalRotation.z
      value: 0
      objectReference: {fileID: 0}
    - target: {fileID: 597308369130767402, guid: 2f7f3dde7ae722a4aafffe20691ad702,
        type: 3}
      propertyPath: m_AnchoredPosition.x
      value: 0
      objectReference: {fileID: 0}
    - target: {fileID: 597308369130767402, guid: 2f7f3dde7ae722a4aafffe20691ad702,
        type: 3}
      propertyPath: m_AnchoredPosition.y
      value: 0
      objectReference: {fileID: 0}
    - target: {fileID: 597308369130767402, guid: 2f7f3dde7ae722a4aafffe20691ad702,
        type: 3}
      propertyPath: m_LocalEulerAnglesHint.x
      value: 0
      objectReference: {fileID: 0}
    - target: {fileID: 597308369130767402, guid: 2f7f3dde7ae722a4aafffe20691ad702,
        type: 3}
      propertyPath: m_LocalEulerAnglesHint.y
      value: 0
      objectReference: {fileID: 0}
    - target: {fileID: 597308369130767402, guid: 2f7f3dde7ae722a4aafffe20691ad702,
        type: 3}
      propertyPath: m_LocalEulerAnglesHint.z
      value: 0
      objectReference: {fileID: 0}
    - target: {fileID: 6751388636123340836, guid: 2f7f3dde7ae722a4aafffe20691ad702,
        type: 3}
      propertyPath: m_Name
      value: UI_Canvas_StarterAssetsInputs_Joysticks
      objectReference: {fileID: 0}
    - target: {fileID: 6751388636123340836, guid: 2f7f3dde7ae722a4aafffe20691ad702,
        type: 3}
      propertyPath: m_IsActive
      value: 0
      objectReference: {fileID: 0}
    - target: {fileID: 8890774966862588244, guid: 2f7f3dde7ae722a4aafffe20691ad702,
        type: 3}
      propertyPath: playerInput
      value: 
      objectReference: {fileID: 4416926083347132239}
    m_RemovedComponents: []
  m_SourcePrefab: {fileID: 100100000, guid: 2f7f3dde7ae722a4aafffe20691ad702, type: 3}
--- !u!1 &2134330856
GameObject:
  m_ObjectHideFlags: 0
  m_CorrespondingSourceObject: {fileID: 0}
  m_PrefabInstance: {fileID: 0}
  m_PrefabAsset: {fileID: 0}
  serializedVersion: 6
  m_Component:
  - component: {fileID: 2134330857}
  - component: {fileID: 2134330860}
  - component: {fileID: 2134330859}
  - component: {fileID: 2134330858}
  m_Layer: 5
  m_Name: MenuButton
  m_TagString: Untagged
  m_Icon: {fileID: 0}
  m_NavMeshLayer: 0
  m_StaticEditorFlags: 0
  m_IsActive: 1
--- !u!224 &2134330857
RectTransform:
  m_ObjectHideFlags: 0
  m_CorrespondingSourceObject: {fileID: 0}
  m_PrefabInstance: {fileID: 0}
  m_PrefabAsset: {fileID: 0}
  m_GameObject: {fileID: 2134330856}
  m_LocalRotation: {x: 0, y: 0, z: 0, w: 1}
  m_LocalPosition: {x: 0, y: 0, z: 0}
  m_LocalScale: {x: 1, y: 1, z: 1}
  m_ConstrainProportionsScale: 0
  m_Children:
  - {fileID: 1934205458}
  m_Father: {fileID: 1976881540}
  m_RootOrder: 1
  m_LocalEulerAnglesHint: {x: 0, y: 0, z: 0}
  m_AnchorMin: {x: 0.5, y: 0.5}
  m_AnchorMax: {x: 0.5, y: 0.5}
  m_AnchoredPosition: {x: 838, y: -493}
  m_SizeDelta: {x: 160, y: 30}
  m_Pivot: {x: 0.5, y: 0.5}
--- !u!114 &2134330858
MonoBehaviour:
  m_ObjectHideFlags: 0
  m_CorrespondingSourceObject: {fileID: 0}
  m_PrefabInstance: {fileID: 0}
  m_PrefabAsset: {fileID: 0}
  m_GameObject: {fileID: 2134330856}
  m_Enabled: 1
  m_EditorHideFlags: 0
  m_Script: {fileID: 11500000, guid: 4e29b1a8efbd4b44bb3f3716e73f07ff, type: 3}
  m_Name: 
  m_EditorClassIdentifier: 
  m_Navigation:
    m_Mode: 3
    m_WrapAround: 0
    m_SelectOnUp: {fileID: 0}
    m_SelectOnDown: {fileID: 0}
    m_SelectOnLeft: {fileID: 0}
    m_SelectOnRight: {fileID: 0}
  m_Transition: 1
  m_Colors:
    m_NormalColor: {r: 1, g: 1, b: 1, a: 1}
    m_HighlightedColor: {r: 0.9607843, g: 0.9607843, b: 0.9607843, a: 1}
    m_PressedColor: {r: 0.78431374, g: 0.78431374, b: 0.78431374, a: 1}
    m_SelectedColor: {r: 0.9607843, g: 0.9607843, b: 0.9607843, a: 1}
    m_DisabledColor: {r: 0.78431374, g: 0.78431374, b: 0.78431374, a: 0.5019608}
    m_ColorMultiplier: 1
    m_FadeDuration: 0.1
  m_SpriteState:
    m_HighlightedSprite: {fileID: 0}
    m_PressedSprite: {fileID: 0}
    m_SelectedSprite: {fileID: 0}
    m_DisabledSprite: {fileID: 0}
  m_AnimationTriggers:
    m_NormalTrigger: Normal
    m_HighlightedTrigger: Highlighted
    m_PressedTrigger: Pressed
    m_SelectedTrigger: Selected
    m_DisabledTrigger: Disabled
  m_Interactable: 1
  m_TargetGraphic: {fileID: 2134330859}
  m_OnClick:
    m_PersistentCalls:
      m_Calls:
      - m_Target: {fileID: 6076085694744912913, guid: af21abd4693606c4a85cd3bed36fe3fc,
          type: 3}
        m_TargetAssemblyTypeName: SceneController, Assembly-CSharp
        m_MethodName: OpenScene
        m_Mode: 5
        m_Arguments:
          m_ObjectArgument: {fileID: 0}
          m_ObjectArgumentAssemblyTypeName: UnityEngine.Object, UnityEngine
          m_IntArgument: 0
          m_FloatArgument: 0
          m_StringArgument: Title
          m_BoolArgument: 0
        m_CallState: 2
--- !u!114 &2134330859
MonoBehaviour:
  m_ObjectHideFlags: 0
  m_CorrespondingSourceObject: {fileID: 0}
  m_PrefabInstance: {fileID: 0}
  m_PrefabAsset: {fileID: 0}
  m_GameObject: {fileID: 2134330856}
  m_Enabled: 1
  m_EditorHideFlags: 0
  m_Script: {fileID: 11500000, guid: fe87c0e1cc204ed48ad3b37840f39efc, type: 3}
  m_Name: 
  m_EditorClassIdentifier: 
  m_Material: {fileID: 0}
  m_Color: {r: 1, g: 1, b: 1, a: 1}
  m_RaycastTarget: 1
  m_RaycastPadding: {x: 0, y: 0, z: 0, w: 0}
  m_Maskable: 1
  m_OnCullStateChanged:
    m_PersistentCalls:
      m_Calls: []
  m_Sprite: {fileID: 10905, guid: 0000000000000000f000000000000000, type: 0}
  m_Type: 1
  m_PreserveAspect: 0
  m_FillCenter: 1
  m_FillMethod: 4
  m_FillAmount: 1
  m_FillClockwise: 1
  m_FillOrigin: 0
  m_UseSpriteMesh: 0
  m_PixelsPerUnitMultiplier: 1
--- !u!222 &2134330860
CanvasRenderer:
  m_ObjectHideFlags: 0
  m_CorrespondingSourceObject: {fileID: 0}
  m_PrefabInstance: {fileID: 0}
  m_PrefabAsset: {fileID: 0}
  m_GameObject: {fileID: 2134330856}
  m_CullTransparentMesh: 1
--- !u!114 &135756641613574975 stripped
MonoBehaviour:
  m_CorrespondingSourceObject: {fileID: 3913886962140069440, guid: 615e0091aa4de3b47b298a83bdc5706e,
    type: 3}
  m_PrefabInstance: {fileID: 4013453315250769279}
  m_PrefabAsset: {fileID: 0}
  m_GameObject: {fileID: 0}
  m_Enabled: 1
  m_EditorHideFlags: 0
  m_Script: {fileID: 11500000, guid: e087ecce43ebbff45a1b360637807d93, type: 3}
  m_Name: 
  m_EditorClassIdentifier: 
--- !u!1 &2114283753834967212
GameObject:
  m_ObjectHideFlags: 0
  m_CorrespondingSourceObject: {fileID: 0}
  m_PrefabInstance: {fileID: 0}
  m_PrefabAsset: {fileID: 0}
  serializedVersion: 6
  m_Component:
  - component: {fileID: 2114283753834967213}
  m_Layer: 0
  m_Name: Lighting
  m_TagString: Untagged
  m_Icon: {fileID: 0}
  m_NavMeshLayer: 0
  m_StaticEditorFlags: 0
  m_IsActive: 1
--- !u!4 &2114283753834967213
Transform:
  m_ObjectHideFlags: 0
  m_CorrespondingSourceObject: {fileID: 0}
  m_PrefabInstance: {fileID: 0}
  m_PrefabAsset: {fileID: 0}
  m_GameObject: {fileID: 2114283753834967212}
  m_LocalRotation: {x: 0, y: 0, z: 0, w: 1}
  m_LocalPosition: {x: 0, y: 0, z: 0}
  m_LocalScale: {x: 1, y: 1, z: 1}
  m_ConstrainProportionsScale: 0
  m_Children:
  - {fileID: 2114283754330233426}
  - {fileID: 1028513133}
  - {fileID: 1764214108}
  - {fileID: 542508512}
  - {fileID: 874605736}
  m_Father: {fileID: 0}
  m_RootOrder: 0
  m_LocalEulerAnglesHint: {x: 0, y: 0, z: 0}
--- !u!1 &2114283754330233424
GameObject:
  m_ObjectHideFlags: 0
  m_CorrespondingSourceObject: {fileID: 0}
  m_PrefabInstance: {fileID: 0}
  m_PrefabAsset: {fileID: 0}
  serializedVersion: 6
  m_Component:
  - component: {fileID: 2114283754330233426}
  - component: {fileID: 2114283754330233425}
  - component: {fileID: 2114283754330233427}
  m_Layer: 0
  m_Name: Directional Light
  m_TagString: Untagged
  m_Icon: {fileID: 0}
  m_NavMeshLayer: 0
  m_StaticEditorFlags: 0
  m_IsActive: 1
--- !u!108 &2114283754330233425
Light:
  m_ObjectHideFlags: 0
  m_CorrespondingSourceObject: {fileID: 0}
  m_PrefabInstance: {fileID: 0}
  m_PrefabAsset: {fileID: 0}
  m_GameObject: {fileID: 2114283754330233424}
  m_Enabled: 1
  serializedVersion: 10
  m_Type: 1
  m_Shape: 0
  m_Color: {r: 0.972549, g: 0.9607843, b: 0.8784314, a: 1}
  m_Intensity: 1
  m_Range: 10
  m_SpotAngle: 30
  m_InnerSpotAngle: 21.80208
  m_CookieSize: 10
  m_Shadows:
    m_Type: 2
    m_Resolution: 2
    m_CustomResolution: -1
    m_Strength: 1
    m_Bias: 0.125
    m_NormalBias: 0
    m_NearPlane: 0.2
    m_CullingMatrixOverride:
      e00: 1
      e01: 0
      e02: 0
      e03: 0
      e10: 0
      e11: 1
      e12: 0
      e13: 0
      e20: 0
      e21: 0
      e22: 1
      e23: 0
      e30: 0
      e31: 0
      e32: 0
      e33: 1
    m_UseCullingMatrixOverride: 0
  m_Cookie: {fileID: 0}
  m_DrawHalo: 0
  m_Flare: {fileID: 0}
  m_RenderMode: 0
  m_CullingMask:
    serializedVersion: 2
    m_Bits: 4294967295
  m_RenderingLayerMask: 1
  m_Lightmapping: 1
  m_LightShadowCasterMode: 0
  m_AreaSize: {x: 1, y: 1}
  m_BounceIntensity: 1
  m_ColorTemperature: 6570
  m_UseColorTemperature: 0
  m_BoundingSphereOverride: {x: 2.2e-44, y: 0, z: 0, w: 2.3164883}
  m_UseBoundingSphereOverride: 0
  m_UseViewFrustumForShadowCasterCull: 1
  m_ShadowRadius: 0
  m_ShadowAngle: 0
--- !u!4 &2114283754330233426
Transform:
  m_ObjectHideFlags: 0
  m_CorrespondingSourceObject: {fileID: 0}
  m_PrefabInstance: {fileID: 0}
  m_PrefabAsset: {fileID: 0}
  m_GameObject: {fileID: 2114283754330233424}
  m_LocalRotation: {x: 0.40821788, y: -0.23456968, z: 0.10938163, w: 0.8754261}
  m_LocalPosition: {x: 39.455, y: 0, z: 7.815}
  m_LocalScale: {x: 1, y: 1, z: 1}
  m_ConstrainProportionsScale: 0
  m_Children: []
  m_Father: {fileID: 2114283753834967213}
  m_RootOrder: 0
  m_LocalEulerAnglesHint: {x: 50, y: -30, z: 0}
--- !u!114 &2114283754330233427
MonoBehaviour:
  m_ObjectHideFlags: 0
  m_CorrespondingSourceObject: {fileID: 0}
  m_PrefabInstance: {fileID: 0}
  m_PrefabAsset: {fileID: 0}
  m_GameObject: {fileID: 2114283754330233424}
  m_Enabled: 1
  m_EditorHideFlags: 0
  m_Script: {fileID: 11500000, guid: 474bcb49853aa07438625e644c072ee6, type: 3}
  m_Name: 
  m_EditorClassIdentifier: 
  m_Version: 1
  m_UsePipelineSettings: 1
  m_AdditionalLightsShadowResolutionTier: 2
  m_LightLayerMask: 1
  m_CustomShadowLayers: 0
  m_ShadowLayerMask: 1
  m_LightCookieSize: {x: 1, y: 1}
  m_LightCookieOffset: {x: 0, y: 0}
--- !u!4 &3893294199639930361 stripped
Transform:
  m_CorrespondingSourceObject: {fileID: 123115567271032966, guid: 615e0091aa4de3b47b298a83bdc5706e,
    type: 3}
  m_PrefabInstance: {fileID: 4013453315250769279}
  m_PrefabAsset: {fileID: 0}
--- !u!1001 &4013453315250769279
PrefabInstance:
  m_ObjectHideFlags: 0
  serializedVersion: 2
  m_Modification:
    m_TransformParent: {fileID: 0}
    m_Modifications:
    - target: {fileID: 123115567271032966, guid: 615e0091aa4de3b47b298a83bdc5706e,
        type: 3}
      propertyPath: m_RootOrder
      value: 4
      objectReference: {fileID: 0}
    - target: {fileID: 123115567271032966, guid: 615e0091aa4de3b47b298a83bdc5706e,
        type: 3}
      propertyPath: m_LocalPosition.x
      value: 0
      objectReference: {fileID: 0}
    - target: {fileID: 123115567271032966, guid: 615e0091aa4de3b47b298a83bdc5706e,
        type: 3}
      propertyPath: m_LocalPosition.y
      value: 0
      objectReference: {fileID: 0}
    - target: {fileID: 123115567271032966, guid: 615e0091aa4de3b47b298a83bdc5706e,
        type: 3}
      propertyPath: m_LocalPosition.z
      value: 0
      objectReference: {fileID: 0}
    - target: {fileID: 123115567271032966, guid: 615e0091aa4de3b47b298a83bdc5706e,
        type: 3}
      propertyPath: m_LocalRotation.w
      value: 1
      objectReference: {fileID: 0}
    - target: {fileID: 123115567271032966, guid: 615e0091aa4de3b47b298a83bdc5706e,
        type: 3}
      propertyPath: m_LocalRotation.x
      value: -0
      objectReference: {fileID: 0}
    - target: {fileID: 123115567271032966, guid: 615e0091aa4de3b47b298a83bdc5706e,
        type: 3}
      propertyPath: m_LocalRotation.y
      value: -0
      objectReference: {fileID: 0}
    - target: {fileID: 123115567271032966, guid: 615e0091aa4de3b47b298a83bdc5706e,
        type: 3}
      propertyPath: m_LocalRotation.z
      value: -0
      objectReference: {fileID: 0}
    - target: {fileID: 123115567271032966, guid: 615e0091aa4de3b47b298a83bdc5706e,
        type: 3}
      propertyPath: m_LocalEulerAnglesHint.x
      value: 0
      objectReference: {fileID: 0}
    - target: {fileID: 123115567271032966, guid: 615e0091aa4de3b47b298a83bdc5706e,
        type: 3}
      propertyPath: m_LocalEulerAnglesHint.y
      value: 0
      objectReference: {fileID: 0}
    - target: {fileID: 123115567271032966, guid: 615e0091aa4de3b47b298a83bdc5706e,
        type: 3}
      propertyPath: m_LocalEulerAnglesHint.z
      value: 0
      objectReference: {fileID: 0}
    - target: {fileID: 792268876111077948, guid: 615e0091aa4de3b47b298a83bdc5706e,
        type: 3}
      propertyPath: m_Name
      value: Sigurd
      objectReference: {fileID: 0}
    m_RemovedComponents: []
  m_SourcePrefab: {fileID: 100100000, guid: 615e0091aa4de3b47b298a83bdc5706e, type: 3}
--- !u!114 &4416926083347132239 stripped
MonoBehaviour:
  m_CorrespondingSourceObject: {fileID: 792268876111077936, guid: 615e0091aa4de3b47b298a83bdc5706e,
    type: 3}
  m_PrefabInstance: {fileID: 4013453315250769279}
  m_PrefabAsset: {fileID: 0}
  m_GameObject: {fileID: 0}
  m_Enabled: 1
  m_EditorHideFlags: 0
  m_Script: {fileID: 11500000, guid: 62899f850307741f2a39c98a8b639597, type: 3}
  m_Name: 
  m_EditorClassIdentifier: 
--- !u!1001 &6076085694474157891
PrefabInstance:
  m_ObjectHideFlags: 0
  serializedVersion: 2
  m_Modification:
    m_TransformParent: {fileID: 0}
    m_Modifications:
    - target: {fileID: 6076085694744912912, guid: af21abd4693606c4a85cd3bed36fe3fc,
        type: 3}
      propertyPath: m_RootOrder
      value: 10
      objectReference: {fileID: 0}
    - target: {fileID: 6076085694744912912, guid: af21abd4693606c4a85cd3bed36fe3fc,
        type: 3}
      propertyPath: m_LocalPosition.x
      value: 5.1540465
      objectReference: {fileID: 0}
    - target: {fileID: 6076085694744912912, guid: af21abd4693606c4a85cd3bed36fe3fc,
        type: 3}
      propertyPath: m_LocalPosition.y
      value: 2.1277962
      objectReference: {fileID: 0}
    - target: {fileID: 6076085694744912912, guid: af21abd4693606c4a85cd3bed36fe3fc,
        type: 3}
      propertyPath: m_LocalPosition.z
      value: -18.14878
      objectReference: {fileID: 0}
    - target: {fileID: 6076085694744912912, guid: af21abd4693606c4a85cd3bed36fe3fc,
        type: 3}
      propertyPath: m_LocalRotation.w
      value: 1
      objectReference: {fileID: 0}
    - target: {fileID: 6076085694744912912, guid: af21abd4693606c4a85cd3bed36fe3fc,
        type: 3}
      propertyPath: m_LocalRotation.x
      value: 0
      objectReference: {fileID: 0}
    - target: {fileID: 6076085694744912912, guid: af21abd4693606c4a85cd3bed36fe3fc,
        type: 3}
      propertyPath: m_LocalRotation.y
      value: 0
      objectReference: {fileID: 0}
    - target: {fileID: 6076085694744912912, guid: af21abd4693606c4a85cd3bed36fe3fc,
        type: 3}
      propertyPath: m_LocalRotation.z
      value: 0
      objectReference: {fileID: 0}
    - target: {fileID: 6076085694744912912, guid: af21abd4693606c4a85cd3bed36fe3fc,
        type: 3}
      propertyPath: m_LocalEulerAnglesHint.x
      value: 0
      objectReference: {fileID: 0}
    - target: {fileID: 6076085694744912912, guid: af21abd4693606c4a85cd3bed36fe3fc,
        type: 3}
      propertyPath: m_LocalEulerAnglesHint.y
      value: 0
      objectReference: {fileID: 0}
    - target: {fileID: 6076085694744912912, guid: af21abd4693606c4a85cd3bed36fe3fc,
        type: 3}
      propertyPath: m_LocalEulerAnglesHint.z
      value: 0
      objectReference: {fileID: 0}
    - target: {fileID: 6076085694744912914, guid: af21abd4693606c4a85cd3bed36fe3fc,
        type: 3}
      propertyPath: m_Name
      value: SceneManager
      objectReference: {fileID: 0}
    m_RemovedComponents: []
  m_SourcePrefab: {fileID: 100100000, guid: af21abd4693606c4a85cd3bed36fe3fc, type: 3}
--- !u!1001 &8345070700268369567
PrefabInstance:
  m_ObjectHideFlags: 0
  serializedVersion: 2
  m_Modification:
    m_TransformParent: {fileID: 0}
    m_Modifications:
    - target: {fileID: 1678179932331761816, guid: 09aade0ecefd01e4b8f7661acf64f5c2,
        type: 3}
      propertyPath: m_Materials.Array.data[0]
      value: 
      objectReference: {fileID: 2100000, guid: 7ab977a21c92388468ee65ad1c0e5a78, type: 2}
    - target: {fileID: 1971228045677015210, guid: 09aade0ecefd01e4b8f7661acf64f5c2,
        type: 3}
      propertyPath: m_Layer
      value: 6
      objectReference: {fileID: 0}
    - target: {fileID: 2055894051710730007, guid: 09aade0ecefd01e4b8f7661acf64f5c2,
        type: 3}
      propertyPath: m_Materials.Array.data[0]
      value: 
      objectReference: {fileID: 2100000, guid: 7ab977a21c92388468ee65ad1c0e5a78, type: 2}
    - target: {fileID: 2188624860443206089, guid: 09aade0ecefd01e4b8f7661acf64f5c2,
        type: 3}
      propertyPath: m_Materials.Array.data[0]
      value: 
      objectReference: {fileID: 2100000, guid: 7ab977a21c92388468ee65ad1c0e5a78, type: 2}
    - target: {fileID: 2267305922763786408, guid: 09aade0ecefd01e4b8f7661acf64f5c2,
        type: 3}
      propertyPath: m_Materials.Array.data[0]
      value: 
      objectReference: {fileID: 2100000, guid: 7ab977a21c92388468ee65ad1c0e5a78, type: 2}
    - target: {fileID: 2742374090662089873, guid: 09aade0ecefd01e4b8f7661acf64f5c2,
        type: 3}
      propertyPath: m_Name
      value: Box_350x250x200_Prefab
      objectReference: {fileID: 0}
    - target: {fileID: 2851502387910328280, guid: 09aade0ecefd01e4b8f7661acf64f5c2,
        type: 3}
      propertyPath: m_Materials.Array.data[0]
      value: 
      objectReference: {fileID: 2100000, guid: 7ab977a21c92388468ee65ad1c0e5a78, type: 2}
    - target: {fileID: 3362877509795758829, guid: 09aade0ecefd01e4b8f7661acf64f5c2,
        type: 3}
      propertyPath: m_Materials.Array.data[0]
      value: 
      objectReference: {fileID: 2100000, guid: 7ab977a21c92388468ee65ad1c0e5a78, type: 2}
    - target: {fileID: 3814548966972071594, guid: 09aade0ecefd01e4b8f7661acf64f5c2,
        type: 3}
      propertyPath: m_Materials.Array.data[0]
      value: 
      objectReference: {fileID: 2100000, guid: 7ab977a21c92388468ee65ad1c0e5a78, type: 2}
    - target: {fileID: 3983598328739993525, guid: 09aade0ecefd01e4b8f7661acf64f5c2,
        type: 3}
      propertyPath: m_Materials.Array.data[0]
      value: 
      objectReference: {fileID: 2100000, guid: 7ab977a21c92388468ee65ad1c0e5a78, type: 2}
    - target: {fileID: 4024457254690178231, guid: 09aade0ecefd01e4b8f7661acf64f5c2,
        type: 3}
      propertyPath: m_LocalRotation.w
      value: 0.6637226
      objectReference: {fileID: 0}
    - target: {fileID: 4024457254690178231, guid: 09aade0ecefd01e4b8f7661acf64f5c2,
        type: 3}
      propertyPath: m_LocalRotation.x
      value: -0.6637226
      objectReference: {fileID: 0}
    - target: {fileID: 4024457254690178231, guid: 09aade0ecefd01e4b8f7661acf64f5c2,
        type: 3}
      propertyPath: m_LocalRotation.y
      value: -0.2438697
      objectReference: {fileID: 0}
    - target: {fileID: 4024457254690178231, guid: 09aade0ecefd01e4b8f7661acf64f5c2,
        type: 3}
      propertyPath: m_LocalRotation.z
      value: -0.2438697
      objectReference: {fileID: 0}
    - target: {fileID: 4024457254690178231, guid: 09aade0ecefd01e4b8f7661acf64f5c2,
        type: 3}
      propertyPath: m_LocalEulerAnglesHint.x
      value: -90
      objectReference: {fileID: 0}
    - target: {fileID: 4024457254690178231, guid: 09aade0ecefd01e4b8f7661acf64f5c2,
        type: 3}
      propertyPath: m_LocalEulerAnglesHint.z
      value: -40.349
      objectReference: {fileID: 0}
    - target: {fileID: 4341615185304014817, guid: 09aade0ecefd01e4b8f7661acf64f5c2,
        type: 3}
      propertyPath: m_Materials.Array.data[0]
      value: 
      objectReference: {fileID: 2100000, guid: 7ab977a21c92388468ee65ad1c0e5a78, type: 2}
    - target: {fileID: 4364672074426162701, guid: 09aade0ecefd01e4b8f7661acf64f5c2,
        type: 3}
      propertyPath: m_Name
      value: Box_350x250x200_Prefab
      objectReference: {fileID: 0}
    - target: {fileID: 4670052200047188738, guid: 09aade0ecefd01e4b8f7661acf64f5c2,
        type: 3}
      propertyPath: m_Materials.Array.data[0]
      value: 
      objectReference: {fileID: 2100000, guid: 7ab977a21c92388468ee65ad1c0e5a78, type: 2}
    - target: {fileID: 5043663941078610840, guid: 09aade0ecefd01e4b8f7661acf64f5c2,
        type: 3}
      propertyPath: m_Name
      value: Box_350x250x300_Prefab
      objectReference: {fileID: 0}
    - target: {fileID: 6056394991271758435, guid: 09aade0ecefd01e4b8f7661acf64f5c2,
        type: 3}
      propertyPath: m_Materials.Array.data[0]
      value: 
      objectReference: {fileID: 2100000, guid: 7ab977a21c92388468ee65ad1c0e5a78, type: 2}
    - target: {fileID: 6448643974395219577, guid: 09aade0ecefd01e4b8f7661acf64f5c2,
        type: 3}
      propertyPath: m_Materials.Array.data[0]
      value: 
      objectReference: {fileID: 2100000, guid: 7ab977a21c92388468ee65ad1c0e5a78, type: 2}
    - target: {fileID: 6645204521410384571, guid: 09aade0ecefd01e4b8f7661acf64f5c2,
        type: 3}
      propertyPath: m_Materials.Array.data[0]
      value: 
      objectReference: {fileID: 2100000, guid: 7ab977a21c92388468ee65ad1c0e5a78, type: 2}
    - target: {fileID: 6658370631066563872, guid: 09aade0ecefd01e4b8f7661acf64f5c2,
        type: 3}
      propertyPath: m_Materials.Array.data[0]
      value: 
      objectReference: {fileID: 2100000, guid: 7ab977a21c92388468ee65ad1c0e5a78, type: 2}
    - target: {fileID: 7868691500460860468, guid: 09aade0ecefd01e4b8f7661acf64f5c2,
        type: 3}
      propertyPath: m_Materials.Array.data[0]
      value: 
      objectReference: {fileID: 2100000, guid: 7ab977a21c92388468ee65ad1c0e5a78, type: 2}
    - target: {fileID: 8268551067277165611, guid: 09aade0ecefd01e4b8f7661acf64f5c2,
        type: 3}
      propertyPath: m_Materials.Array.data[0]
      value: 
      objectReference: {fileID: 2100000, guid: 7ab977a21c92388468ee65ad1c0e5a78, type: 2}
    - target: {fileID: 8345070698389364575, guid: 09aade0ecefd01e4b8f7661acf64f5c2,
        type: 3}
      propertyPath: m_LocalScale.z
      value: 1.875
      objectReference: {fileID: 0}
    - target: {fileID: 8345070699079395522, guid: 09aade0ecefd01e4b8f7661acf64f5c2,
        type: 3}
      propertyPath: m_RootOrder
      value: 3
      objectReference: {fileID: 0}
    - target: {fileID: 8345070699079395522, guid: 09aade0ecefd01e4b8f7661acf64f5c2,
        type: 3}
      propertyPath: m_LocalPosition.x
      value: 0
      objectReference: {fileID: 0}
    - target: {fileID: 8345070699079395522, guid: 09aade0ecefd01e4b8f7661acf64f5c2,
        type: 3}
      propertyPath: m_LocalPosition.y
      value: 0
      objectReference: {fileID: 0}
    - target: {fileID: 8345070699079395522, guid: 09aade0ecefd01e4b8f7661acf64f5c2,
        type: 3}
      propertyPath: m_LocalPosition.z
      value: 0
      objectReference: {fileID: 0}
    - target: {fileID: 8345070699079395522, guid: 09aade0ecefd01e4b8f7661acf64f5c2,
        type: 3}
      propertyPath: m_LocalRotation.w
      value: 1
      objectReference: {fileID: 0}
    - target: {fileID: 8345070699079395522, guid: 09aade0ecefd01e4b8f7661acf64f5c2,
        type: 3}
      propertyPath: m_LocalRotation.x
      value: 0
      objectReference: {fileID: 0}
    - target: {fileID: 8345070699079395522, guid: 09aade0ecefd01e4b8f7661acf64f5c2,
        type: 3}
      propertyPath: m_LocalRotation.y
      value: 0
      objectReference: {fileID: 0}
    - target: {fileID: 8345070699079395522, guid: 09aade0ecefd01e4b8f7661acf64f5c2,
        type: 3}
      propertyPath: m_LocalRotation.z
      value: 0
      objectReference: {fileID: 0}
    - target: {fileID: 8345070699079395522, guid: 09aade0ecefd01e4b8f7661acf64f5c2,
        type: 3}
      propertyPath: m_LocalEulerAnglesHint.x
      value: 0
      objectReference: {fileID: 0}
    - target: {fileID: 8345070699079395522, guid: 09aade0ecefd01e4b8f7661acf64f5c2,
        type: 3}
      propertyPath: m_LocalEulerAnglesHint.y
      value: 0
      objectReference: {fileID: 0}
    - target: {fileID: 8345070699079395522, guid: 09aade0ecefd01e4b8f7661acf64f5c2,
        type: 3}
      propertyPath: m_LocalEulerAnglesHint.z
      value: 0
      objectReference: {fileID: 0}
    - target: {fileID: 8345070699079395523, guid: 09aade0ecefd01e4b8f7661acf64f5c2,
        type: 3}
      propertyPath: m_Name
      value: Environment
      objectReference: {fileID: 0}
    - target: {fileID: 8345070700331616360, guid: 09aade0ecefd01e4b8f7661acf64f5c2,
        type: 3}
      propertyPath: m_LocalScale.x
      value: 10
      objectReference: {fileID: 0}
    - target: {fileID: 8345070700331616360, guid: 09aade0ecefd01e4b8f7661acf64f5c2,
        type: 3}
      propertyPath: m_LocalScale.y
      value: 1
      objectReference: {fileID: 0}
    - target: {fileID: 8345070700331616360, guid: 09aade0ecefd01e4b8f7661acf64f5c2,
        type: 3}
      propertyPath: m_LocalScale.z
      value: 10
      objectReference: {fileID: 0}
    - target: {fileID: 8345070700331616360, guid: 09aade0ecefd01e4b8f7661acf64f5c2,
        type: 3}
      propertyPath: m_ConstrainProportionsScale
      value: 0
      objectReference: {fileID: 0}
    - target: {fileID: 8680289381081499115, guid: 09aade0ecefd01e4b8f7661acf64f5c2,
        type: 3}
      propertyPath: m_Materials.Array.data[0]
      value: 
      objectReference: {fileID: 2100000, guid: 7ab977a21c92388468ee65ad1c0e5a78, type: 2}
    m_RemovedComponents: []
  m_SourcePrefab: {fileID: 100100000, guid: 09aade0ecefd01e4b8f7661acf64f5c2, type: 3}
